<?xml version="1.0" encoding="UTF-8" standalone="no"?>
<!-- Created with Inkscape (http://www.inkscape.org/) -->

<svg
   width="54.696407mm"
   height="16.572618mm"
   viewBox="0 0 54.696407 16.572618"
   version="1.1"
   id="svg68700"
   xml:space="preserve"
   inkscape:version="1.2.1 (9c6d41e410, 2022-07-14)"
   sodipodi:docname="licenca.svg"
   xmlns:inkscape="http://www.inkscape.org/namespaces/inkscape"
   xmlns:sodipodi="http://sodipodi.sourceforge.net/DTD/sodipodi-0.dtd"
   xmlns="http://www.w3.org/2000/svg"
   xmlns:svg="http://www.w3.org/2000/svg"><sodipodi:namedview
     id="namedview68702"
     pagecolor="#505050"
     bordercolor="#ffffff"
     borderopacity="1"
     inkscape:showpageshadow="0"
     inkscape:pageopacity="0"
     inkscape:pagecheckerboard="1"
     inkscape:deskcolor="#505050"
     inkscape:document-units="mm"
     showgrid="false"
     inkscape:zoom="8.3856036"
     inkscape:cx="144.65268"
     inkscape:cy="43.467354"
     inkscape:window-width="1920"
     inkscape:window-height="1011"
     inkscape:window-x="0"
     inkscape:window-y="32"
     inkscape:window-maximized="1"
     inkscape:current-layer="layer1" /><defs
     id="defs68697" /><g
     inkscape:label="Camada 1"
     inkscape:groupmode="layer"
     id="layer1"
     transform="translate(-53.434499,-83.701783)"><path
       id="rect70356"
       style="fill:#ffffff;stroke-width:0.562174;stroke-linecap:square;stroke-linejoin:bevel;paint-order:stroke fill markers;stop-color:#000000"
       d="m 99.691955,83.973912 c -0.968597,0.01035 -1.926807,0.139848 -2.56276,0.385245 -2.082898,0.803702 -3.575371,2.15438 -4.542166,4.11054 -0.684544,1.385083 -0.878729,2.64329 -0.720871,4.6696 0.188801,2.423456 2.10806,5.040059 4.549619,6.202129 2.091052,0.995234 4.882393,0.950554 7.024193,-0.112195 1.45847,-0.723688 3.07877,-2.350484 3.79469,-3.809941 0.45727,-0.932171 0.6699,-2.176835 0.66621,-3.298551 -0.004,-1.173586 -0.20041,-2.350171 -0.71972,-3.446422 -0.92235,-1.947187 -2.85575,-3.684276 -4.86448,-4.370614 -0.67716,-0.231365 -1.65612,-0.340133 -2.624715,-0.329791 z m 0.139446,1.31462 c 2.383569,0.01801 4.732499,1.317118 5.991349,3.638398 0.55291,1.019537 0.74933,2.043498 0.7589,3.110795 0.009,1.014844 -0.22366,2.125584 -0.66842,2.97038 -0.59814,1.136097 -1.81962,2.310388 -3.14387,3.022274 -0.95757,0.514761 -1.16214,0.559305 -2.777112,0.603481 -1.412353,0.03861 -1.894086,-0.01294 -2.536836,-0.271423 -1.722352,-0.692688 -3.308722,-2.289659 -3.955862,-3.981807 -0.456311,-1.193171 -0.500607,-3.060143 -0.103446,-4.359909 0.351716,-1.151052 1.531592,-2.756437 2.577688,-3.507392 1.172599,-0.841761 2.520478,-1.234906 3.857609,-1.224797 z m -0.09116,2.549797 c -0.376653,3.76e-4 -0.750844,0.05089 -1.106428,0.156301 -0.893623,0.264855 -2.036049,1.419296 -2.216116,2.239139 -0.06021,0.273923 -0.253012,0.550934 -0.428371,0.615806 -0.284718,0.105322 -0.238234,0.19709 0.433238,0.856088 l 0.752,0.738059 0.784095,-0.784106 c 0.554191,-0.554197 0.699327,-0.7841 0.495496,-0.7841 -0.4369,0 -0.345713,-0.465955 0.197163,-1.008831 0.650702,-0.650697 1.743562,-0.684005 2.467432,-0.07491 0.90078,0.757951 1.10891,2.578838 0.45269,3.961701 -0.54033,1.138689 -1.953367,1.469274 -2.894825,0.677089 -0.280956,-0.236411 -0.510741,-0.572614 -0.510741,-0.747132 0,-0.27752 -0.126467,-0.317467 -1.007531,-0.317467 -0.967545,0 -1.002813,0.01475 -0.894031,0.373566 0.414289,1.366495 1.473768,2.363457 2.746631,2.584494 0.725526,0.125989 1.752217,0.03085 2.392527,-0.221813 0.69385,-0.273712 1.72638,-1.268256 2.08413,-2.007275 0.71457,-1.476086 0.37407,-3.848559 -0.71957,-5.012682 -0.74478,-0.792785 -1.8978,-1.245054 -3.027789,-1.24393 z"
       sodipodi:nodetypes="sssssssacssssassscssssssssscssssssssssssss" /><path
       style="display:inline;vector-effect:none;fill:#ffffff;fill-opacity:1;fill-rule:evenodd;stroke:#fffffa;stroke-width:0.17959;stroke-linecap:butt;stroke-linejoin:miter;stroke-miterlimit:4;stroke-dasharray:none;stroke-dashoffset:0;stroke-opacity:0.984293;marker:none;paint-order:stroke fill markers"
       d="m 81.12904,83.859221 c -4.498351,0 -8.156857,3.65776 -8.156857,8.15613 3e-5,4.49836 3.658526,8.156859 8.156857,8.156859 4.49833,0 8.15607,-3.658499 8.15609,-8.156859 0,-4.49837 -3.65774,-8.15613 -8.15609,-8.15613 z m 0,1.084826 c 3.911846,0 7.070538,3.159487 7.070538,7.071304 -2e-5,3.911866 -3.158702,7.071324 -7.070538,7.071324 -3.911827,0 -7.071285,-3.159458 -7.071305,-7.071324 0,-3.911817 3.159458,-7.071304 7.071305,-7.071304 z m 0.06857,1.60319 a 1.083025,1.083025 0 0 0 -1.083276,1.082536 1.083025,1.083025 0 0 0 1.083273,1.083263 1.083025,1.083025 0 0 0 1.082507,-1.083263 1.083025,1.083025 0 0 0 -1.082507,-1.082536 z m -2.436775,3.045799 c 0,0 -0.02607,2.478393 0,3.56498 0.01,0.404079 0.855409,0.453001 0.85717,0.85717 0.005,1.081163 0.04488,3.520008 0.04488,3.520008 h 2.707789 c 0,0 0.07912,-2.430724 0.01145,-3.497179 -0.02737,-0.432123 1.110192,-0.374721 1.113715,-0.80768 0.008,-1.027514 0,-3.637299 0,-3.637299 z"
       id="path2659"
       inkscape:connector-curvature="0" /><path
       style="display:inline;fill:#ffffff;fill-rule:evenodd;stroke:none;stroke-width:0.389764px;stroke-linecap:round;stroke-linejoin:round;stroke-opacity:1"
       d="m 62.197612,83.770901 c -4.546955,0 -8.245158,3.698203 -8.245158,8.245187 0,4.546955 3.698203,8.244442 8.245158,8.244442 4.546974,0 8.245167,-3.697487 8.245167,-8.244442 0,-4.546984 -3.698193,-8.245187 -8.245167,-8.245187 z m 0,1.113009 c 3.945483,0 7.132208,3.186735 7.132208,7.132178 0,3.945484 -3.186725,7.131433 -7.132208,7.131433 -3.945464,0 -7.132199,-3.185949 -7.132199,-7.131433 0,-3.945443 3.186735,-7.132178 7.132199,-7.132178 z m -3.449839,4.319188 c -1.019672,0.646702 -1.721715,2.016972 -1.654371,3.222522 0.05583,0.999798 0.785995,2.016255 1.661059,2.503053 0.780472,0.434153 2.678093,0.0815 2.678093,0.0815 l -0.03344,-1.304062 c 0,0 -1.352437,0.37301 -1.933687,0.09265 -0.579099,-0.279235 -1.085611,-0.923428 -1.127319,-1.564985 -0.05075,-0.780721 0.437437,-1.672633 1.113715,-2.066054 0.528516,-0.307458 1.833831,0.0417 1.833831,0.0417 l 0.306821,-1.102828 c -0.894648,-0.300751 -2.043453,-0.411623 -2.844665,0.09653 z m 5.821489,-0.07892 c -1.340793,0.373826 -2.039751,2.012335 -2.015379,3.301439 0.01891,1.001181 0.785995,2.016255 1.661059,2.503053 0.780482,0.434153 2.678104,0.0815 2.678104,0.0815 l -0.03344,-1.304062 c 0,0 -1.117219,0.384663 -1.62598,0.187629 -0.647219,-0.250693 -1.291154,-0.87987 -1.36811,-1.569662 -0.08678,-0.777656 0.432053,-1.683033 1.114481,-2.066044 0.529103,-0.29686 1.750187,0.007 1.750187,0.007 0,0 0.150937,-0.582871 0.255092,-0.94992 -0.537213,-0.374383 -1.650431,-0.404527 -2.415976,-0.191103 z"
       id="path2661"
       inkscape:connector-curvature="0"
       sodipodi:nodetypes="ssssssssssaaaccaaaccacaaccaacccsc" /></g></svg>
