<?xml version="1.0" encoding="UTF-8" standalone="no"?>
<!-- Created with Inkscape (http://www.inkscape.org/) -->

<svg
   width="160"
   height="160"
   viewBox="0 0 160 160"
   id="svg5270"
   version="1.1"
   inkscape:version="1.2.1 (9c6d41e410, 2022-07-14)"
   sodipodi:docname="favicon.svg"
   inkscape:export-filename="favicon.png"
   inkscape:export-xdpi="92"
   inkscape:export-ydpi="92"
   xml:space="preserve"
   xmlns:inkscape="http://www.inkscape.org/namespaces/inkscape"
   xmlns:sodipodi="http://sodipodi.sourceforge.net/DTD/sodipodi-0.dtd"
   xmlns:xlink="http://www.w3.org/1999/xlink"
   xmlns="http://www.w3.org/2000/svg"
   xmlns:svg="http://www.w3.org/2000/svg"
   xmlns:rdf="http://www.w3.org/1999/02/22-rdf-syntax-ns#"
   xmlns:cc="http://creativecommons.org/ns#"
   xmlns:dc="http://purl.org/dc/elements/1.1/"><defs
     id="defs5272"><clipPath
       clipPathUnits="userSpaceOnUse"
       id="clipPath1099"><rect
         style="fill:#000000;stroke-width:1.01418px;stop-color:#000000"
         id="rect1101"
         width="173.17947"
         height="151.21655"
         x="-5.3889671e-06"
         y="843.37463"
         ry="20.468122"
         transform="matrix(0.92114226,0.38922608,-0.57453043,0.81848322,0,0)" /></clipPath><clipPath
       clipPathUnits="userSpaceOnUse"
       id="clipPath1103"><rect
         style="fill:#000000;stroke-width:1.00274px;stop-color:#000000"
         id="rect1105"
         width="160"
         height="160"
         x="-4.9788505e-06"
         y="892.36218"
         ry="21.657017" /></clipPath><clipPath
       clipPathUnits="userSpaceOnUse"
       id="clipPath1119"><rect
         style="fill:#000000;stroke-width:1.04843px;stop-color:#000000"
         id="rect1121"
         width="183.8734"
         height="152.20421"
         x="55.098377"
         y="868.22864"
         ry="20.601807"
         transform="matrix(0.93632111,0.35114496,-0.62001859,0.78458712,0,0)" /></clipPath><clipPath
       clipPathUnits="userSpaceOnUse"
       id="clipPath1123"><rect
         style="fill:#000000;stroke-width:1.00274px;stop-color:#000000"
         id="rect1125"
         width="160"
         height="160"
         x="-0.04374003"
         y="892.30341"
         ry="21.657017" /></clipPath></defs><sodipodi:namedview
     id="base"
     pagecolor="#ffffff"
     bordercolor="#666666"
     borderopacity="1.0"
     inkscape:pageopacity="0.0"
     inkscape:pageshadow="2"
     inkscape:zoom="2"
     inkscape:cx="230.5"
     inkscape:cy="96.75"
     inkscape:document-units="px"
     inkscape:current-layer="layer1"
     showgrid="false"
     units="px"
     inkscape:window-width="1920"
     inkscape:window-height="1011"
     inkscape:window-x="0"
     inkscape:window-y="32"
     inkscape:window-maximized="1"
     inkscape:showpageshadow="0"
     inkscape:pagecheckerboard="1"
     inkscape:deskcolor="#d1d1d1" /><metadata
     id="metadata5275"><rdf:RDF><cc:Work
         rdf:about=""><dc:format>image/svg+xml</dc:format><dc:type
           rdf:resource="http://purl.org/dc/dcmitype/StillImage" /><dc:title /></cc:Work></rdf:RDF></metadata><g
     inkscape:label="Camada 1"
     inkscape:groupmode="layer"
     id="layer1"
     transform="translate(0,-892.36216)"><g
       id="g1152"
       transform="translate(-238.07722,-20.060841)"><image
         width="160"
         height="160"
         preserveAspectRatio="none"
         xlink:href="data:image/png;base64,iVBORw0KGgoAAAANSUhEUgAAAJ0AAACgCAYAAAAWwm6lAAAABHNCSVQICAgIfAhkiAAAIABJREFU eJyU3XecHVd5MP7vzL3bm3ZVXGTZcm+yjdu6yVWyTCdxQEAwzQFTEwIvPRSFVH6E8AYIEExLQnVC AJtQLblgsL0ucm+427JkWdre99477x/nzM7sSs77e5/9zGdmZ+ae8pznPP2cSc7LjstIcQpuQ4Jz sVsBDXzHQngzatgP/5894TScjnF8fS/PPxzrGsU/7/F0YNH/k3O4C8+iGyeiYy/F7gHv9QatEpBI MWy3u9wS73XrA6NO8Cp9+jSQWGUcVWSY85SvxF4zYsioH8c3A65ujvUNs/2xcDkef1zFNiyJ109h gvmfKyo68hXhso6TsByDuAPnCdhO8JJ4bscYjon/N4TRhEqp+Nvi+eQSZn6LM+P1/bHODozEcu7H YzjOak1a8KB+r9anR4ZEIokNr/uSFKk/k6jEUps0vpupz9bV5+qeu+yf+NLfqaze9NpNHIJWPBqx 9DgOi/em4r27S809Gr8WqOC3+Ch+U3r+HvwwDsRWXBrPObwGX8ENuAUfw/XKsFIYpxyaKsx1YTpi p4YuYYT2Blk8kpvc6QVO0CKRyNCqXbc+z9qGGXNazGhxsH21SU1rVTMqMYoemUTDqDVxMBpmbTfj SZVYySSeiRWvo2sg3KrHxxVhbk2gGZ3CyKbxOfOUsvtQ+uKY7Y8WgRB68DusiN1eJhDcbyKuGsJo NZWKTSOaKrGs/RehaFtszoRipNM4IvvGsu5Hmx4TqiYs8bDnHKBbu/ZI0BWZJlWnSZ0hkSCRaZZp qB/XkN3e8CySl7+caiIteh0RZh3WxiqHhLnyXbwbr8O7YlPK8Ld4By7De/FPi55/A38ej0vx/UXP /1rgdvkRoH/RW+1dwgg0YSfuxZPC4JahriDMGfiifzMZCSYcPfocqz/SxSi40Q2eMSgxJsEX0PCU XZ4ygrFItA38Rk+pwpzHiI07Ilw2W4jeVGBbWXy2GBKBGOPlHcSW7R3yom/Dr5ifAoPCXMzlyO69 /jqMbkt8N+foFeyKR4fAQWvGY32pTBA2z8psNyfTJEEWia2hoqFZpm7WP6ibtaNRV2/UJUliVCbl uVjFYGzGUGzqYMTSt2MTdwtyLWfYXOP9pS70Yqky67nGB0rPk3h0/w8oTCwcpb0Q3qECIVUFubIN D1hIeNMCwTXi/XH4J//upvlbc7gqXs9gzqgabvVbO+02YxSJf5aYUxDrRMQQCZvKLcv7Vwmt3kfB prYr0JZ3b5mA3nzE8yJ+x4Px0X32pNlrBE73OxxvnrxR8NpEGL05YUTyKVEXRjufjxsEbim+W8N/ lZo6E+s6yW4nOcdobM+t7rDLEL5hhzD/d8xPyGYZdvgH2zewfcMXeUsob6hekySk3I5bhflSPgYU mkDe5ZF5lMP5/qH0/Ib4TqX0/DMWQub5ISe4ZI8nCwivmfaD4qtNmI3NugPDgr7UIQxkTcBwI2/6 Ft/xt/O3X6XPcfrV4qtNVqs6yN1+bswgRl2iILbAQBPTOZfb1IM+hTC7IFZUxUmhLfNiXkGTu+M5 H/G8+/m5Hk5Hxrprpdcagp7VI4xcbwmrWSy6L/4/FtvcoyC8PoEgc9hdOtdxjjBHJ+L9TjyCIcPO dY5hNaO4xh12+6M4akE32KHZsxp2IPN+ya9IfvVOidT4ZSskl7FFTWX1poM3hZEr97xPUErybrxD EJF3x+PtAqHmsFbQLn4jEN87Fj1/C76Em+LxZoFKcvgb/C/8LB7/HM8FLNDxWmgaZG5awSUmBZW0 XRiJqmLEcpkY1a97239jP8do0a6iTa8+O2zTZCf2UbePpeacbKnEjDGtRG0lE7D1tBmNeXwN4mkc qsDlMkbuDBOgRWFUlFnmMgWLIdBtgsdZcli43F/gNk0C13pGoOWRiOnjcXC8/7hgKCSCjjYTz5uF Ee2MVXUIrKMtou05BeFO4AnBYLleILgfYdqohy3V4iiZx6VSj5nWbokl2tCiEU2JLHK9EUea02zO CpmG63xSeuI6ldWb9tvEGbEqgomVj2Im2E+/sBBuFazPOlbH7i9+/jacGtFw+aLndwiEd1I8/mHR 858JeuHLBDstEOA80VWxD033M1cRuEZD0ISHY5PbFYQ3F7szF4+HeHTlbY5wtjpatOnR5wnbzNlp 1j6eM6dqBMskZtTM+JlWh0iiqjgTNT8RT48IRDcVG9RK5y0BRbkAmFBMgkwgxqZ4zCiILmPwiECT zwlElVuUO2NRw8LcOlUg85x75YbGZkEfG43nG+JIURDlzlJ544JWMicQ202CMTEpiNwHjfq5JdZb 5lpPekJitVbPeEiL1Wg3KdFsH5lOY9pV9BpR167NtT4erenzpKEpfejxzgdywntWoRgXIvEabysR xhjOis0M8Ib7OkvP2ywWp//hjy2E7oiivUGuFhdl9C9sDi8WBmzOvAKuS+B44/H/ptiVHaVjeTj/ xE/VBTJp0+fZeVF7j1GJ+80Y9ZCGfNqN+oURidGSHZAT3no2DitsxyqtFwc09cTu5L6MnLh2K0Ru e6m4FBMFE68Jis63Y8nTJczcFs8nCvJkc+zu+nidV5cXnWvrz8bfdQk8uqHwJRyhELHfifU/NwYP +GAUs3O4VmZLNB7qqk7w14YkRvCcUTV1jdiOoOX8tYZPSANGhnCSLx31ZoEzrYvNXi/oKQHO9y8K yBad+bdjxkvPb4iYLIjqVb5bet6pkDV7g9zMqy24258pbPs52s8Qpm0ZaoIWsF2QOcOKEVwhcJgM 2+/yuKfMxSJfpM/R+lVlWtwjQ91xMrucH3/+wihm94RerlijkKFNoaLV6wIT3C0YF9XY9o6Inn3i z3MqznW/h0JJaxXG+Gss9LPBjfE8ppAn2xWjcoswuv24WhjtnfFeTSCsboGz5S4WgjrzeezKlTsw 5OOWRA02UTEqs69/dLsfqbrdF6N7KTcqEltQl0VD5mNu8j7VgI1lCgNgJp4zfDlev1PQyXJ4y6L/ 32Whg/c1glsk1+vejG+Wnr/HQrfK4v8/K+h4Ofwj3hcua4HwBqbMc4f2U5i8XWElzglTelRQTtrj 0aGY9nFU7tv+77L93my5/cyiSZ8j9LvPgMzdHsDhTtHiGedbZk7gNNPKsFTAY4fC45sIlHQoKzcH dvJo+NdOgdu24oCUFY1AHe0C+hM8F3Q3gohbH7szW+riQwrrtU8gyNsFzvKSUutuFcTwQbHqnCCf FuTRLbHM+xRenkQkwJwKuzjFGWBGqibMn4pgXDUkron9HjKoW48Jz+nVoyaT+aREKrNLZfWmBzcF raFVYePsJ8yd3Hq9RTAO1gv63xcthFtwgqAF7Bu6netQTQQd7t04LqLmy4t+f7NAeGsFQ/6ji57/ UvBPVKmMUZu0ssG2mnlvaNPyaFjk1my0AhG6N4kDhEEti+iEXZN3aOs8SpMONaTaLNXnPtu02ek5 da2O1KZmLiL5/gUmae4g7hJY6U4Fpc/StoqxB4p6TxZYzhLht009DM8U1nYUxbOHBDF3dKzhxtiF /QQtgYJd9Mb7S4S5d2j8/9nYmh5haogtHZO7PwKRjgsjXxbpdxJEwDTaOpzuLNf6nT4HOdrB/sUT jtAptcI2OyzRq8UO07brMOOj+qzTkEYTY7cRg+r5vO8WKGS3IHsa+Bc2lge+W6EFB7j0vrI+ljGZ MDkdeoXXbY09nMTU1Qo9LcAW7yn9Phdaz9g79Anz8jXzCk1/Lh8IrpQXxLrK7oeKgPkDBC7Xu5ei Mx7YdbkJ4+qxyEQfTrULDXfHkM/KaK9EbrZxcUG5qRP9NBszNjZjWQjwnLqM41aHVyrl343wguDA 0qzQ+YbDazktll2ReYwoJ0YCIeWwOVaxc1EL03h0x9/l/sBrhfmbT6MF8aEGRznUtGkvcK661F+q YIWrBDGaStzpRzKZTt2yaLUlGjKfiE74WYWDxVJhXhwicLd7wu0ryjXvFPSs5+bvfOOY2M0JTEwI 06KA75xYxtKzTF6vLJguWCBSZ0Pv5q3nxZAJnPaAwEAiJ+vPLVNIaV8nYDQnsGZhGj+qsBD77Ak1 7h7+vFGj6hiUYanTnQoe9Q277Fa3f4wSNLgidyn9Ilaaq/fHhfMVCVe0xAr+mKRfoL4XLqr8FKwK 6G8SqKWCu4M6mkOZTvNafh//71VYsKcQW70njAti+m9ii+NIzxNb3bzXpigYy/RJMWPUduPeJsUG F1ihLpFJnO1cFalmiTCeqSFD+IQhQzKZHp3SgfkuzMbz2ThqUVNfIOhk38C/Cm6OUi+y/cgeIXvQ QPYg2SLCaV8rqK4PMPUdZg5YVP5rBB3xc/iMhfocQd97Tzw+hD8Pdkg0FPtnhGke3SPta3GgMI/y 6TsreIUmFfKozBHjOw/s/qIRw2ZxpExiqUOc6ginarjbLB61X/xh2brOr7cJYrZsCDVbhuD66YwN yAnvVGHolxbR/NyCTQu+P4nzFdZqaQQQIuDdEQ1LBbGbWEh8OSfMkyk+b2Ew5BqB6CYtgqXQHg2E RKtEhxFvUbHWOue60FkOMWJUQ0MSRehHDaKhIdOtLRoWN6g0bXrfpm0S26RWEkdpRMDARQJnunNR K7ZjOePtZO0Gsp22ZWzrwizbkmnbdFmZdKKNpgcLf1QTqqNCHHdYUHkXx2JvFIyPNXgtC8JtBFvr DbTezXRGxsoa2+YEzjZN034xQaAqMOBc9ZoQxr0pvpsr7rlISxiq3aK15UQ1zTEU1I42t2kzbodZ +wiENR4L3ya4nnJnxrL4fIzvZtxdMXndFP13CTG7o2KFB8WGdFmQEDGhCHJs4/gDClXvMeI4Ba0h wStDTfOu6eaAdUls3YMCo+8TUjTahZB1nvjyjOBy2SHMy7stllnssNsDTrDanBapbol9LZVpl0o1 7DRjTIsmqUzDKtPGdWmXqSGxyef0WCUNTfwsqj4vFbr3RUH1HCFaLHDpfaVWjNVpNAw0JgvPxwZh ulyP3/Qb+E0/vzkjRKN/GZ8vgPM9f0h7WLAGdzzP8+V4S8BglDv9QS4GmIjGba+gz+V5Pg0B27nW XA4Fp8U722a+YMq4QZknZTFq24jcIs+42c8Cl8/GnNs9Hc7fzcgyGg3+tEsRFbyq9LtEsDkjrFI4 kyuhjVcK/PKrRVf1CfKnLkTOc+6X0+q4QIjNArfrx6mbwm+fjPdzIbA+lndS/H8wD6qU4EznotUv pWYlfm+Z1D5aNPkL1MzptERDZs5KdTVL9Eil+LQP+3vwqN9Jw9wIgfnTpQZMRPbbo/A9BPjGMaVW dB1poPsoek4K02XJBbyzP2BhGjOTNH5hQKOQQP9LIEAUTtS9e72KlIu553k+hFlaLi2crzP0N8LZ 45iKhNcuDGaPwmWSa9hNiuBk3qzoA9zlC+aMGJVp2aOddwv6XCnMfkVaPP5CRuNoYXgT/rWJD76R T8MfKGZBBRcuLHqVwp+XFj7kdyxqweJI9j9b6IPOYangXvnOpiLutFzQ/ZLS0YeH2WsGTD2KihdJ 9OizxBL1aDB9wO2qms2ZkzhURVUi1ZAnhb3DBmeDw5yrMrfpxk1NljKfQ9DAqbb5Z9vcbaW7BXFR SPoB/ba5WfAkPRluXtnn4j9IHbNxlfutYjBh4kAma7bVjrKy9ZFiYB+5mEN/IDD7h5g5iOqIAt6E 7wm6zi2CLndz6fmlgn55hyCWXknbffM63coa23pj89ppamKuKjDOjojh3HXSFkeqWaFF5yNXZ7Z6 q9QamRapZJEr+wmBB3VHHM2ghzdvYf8jaGkhGTRv9f+owkUHc12Ds+uCAXJoxPnBgvA8ja5Bnq0V Yv85Vu0TmnWYkGHSF5v6rBDmyv3fNUFol6dIbt3GkZp3l+TcLofchbI3OMxxTtauWYsxI5r0GNZr mcSU7dp1StSk+iQa5oxLzRpxD8btMD3fskSWT5iTtecxw0UJlQFyt+Fh9synw09Ptq5esbmBoZQ/ yadqC9+q6G9tJanQk5D8Z8DKEF6RF3AQLYmgXfxoL/X/uYL7fWMvzy/BFBM/nDf5BloUaRaCRwdF 0tmcMOVbFKM0oSC83PuZEvIEyywgjR24SbAjLxCcD91cuplTTqbnGOr3aE9SslmyhsmZGYa/FgTM x/Ky1sdzHpTDvTcVcdsWHB602y5cJ4jCZbGJu2M3Vghe0opCKbopnnOCKyszNYX52LCn97UMx3uJ w6xWlRhTkeBn9vEJfVo8qaEmtVqipmFKatyov9KDqktc7WaPREspLTTGmkkzJkvNeotTStUeh4SR R4tbZR2tcpvN1bp11YRKzuCvD12bqRmo1WjUGcnI/ojGq/1ocn0J8Qkzqb0THHsLuy2E/dBGx0vm xWU/QfrF6Nx8JlEiyJw8XbamkDG58ZHrVfOy6nOL6tvNxlvjy/fHF/cPehxBl7sk0Z4eS61GbY4s 016p0HZJeOcv87KuFoZ9TOA9N4W8piZ7zYzOm/UFC4OIz5WubwylLMBWztQpMr5yZrrAbbgXuMt2 41KZXp2W+Jl9kPmUQXUHuc7jrrFFFn12Q+7x9wKLyHzbhU63JiY9pdryYufk0z0XpF9bwGwTnEDP msL2zvWzXx5BciTphLmRBmnKNys4j68mJFWmGmTR4hjBcN0fvrlFEC+HKTD8SrzqebqeeX4/HoHw lgfrdKkQMlstEF60CNvLo9Bjz6zjTCDGvdL206XrBlfkMaJMILw+Nj8gd5+0fzsWMpkyWmXsQMYT 7a1thZ/8k4RYd6ogg7OK5M4cLU8FvaxMg+9WpNbmBLdrUVd2x3vl9Iucs5VjKotzvfeEB0yYiVHV LIbZOnxUYsSQ86xzrvORmfOULm0+PP/b16DuXKda63Rp0AiOUeTE3oHj5wMJAU4WpP0tuI2uMgcU u/AgHnB9OhastaSZy6vmxXLWzExCI95LmvhKa0DjxyKGWy4QhMbdsU3vEMRmHpv93wLHOW5R/e8X TMPP4Ft4eRBJUWz2U6TLZjFAlU/xPPeuHMnIx34PwvuOYAmkpZfzeEF8uVIh2y8SdxbQmh4dns0G bmesod0rIm1u4GN5WbcL1NiEM4Kal8T2tRRByXKEIreXe4XpOBtHYpdAcGUC26FIqM7v8fz+ATsF pRFMmjNlzLAOLLHEKje4y+0edpshz8nU1T2uYsb4fNrPBtTVzapoGPX7fI3EfYJS/ESM998lxFJP NOkkkwsyiAkEeGJ851Cyh8PtiOhzVeJ1C0kjIDKr8+Y6c8HVMn8vh2vOMa/izpTFc55w/R5hbr9P sPb+RLC6P2jPfLwrw6ldoI9D6H9WkcsQ29pOQTuLWcHezMB5+DthAqalY4jLo38/jaJ2QuEySSq8 P8OB1Bqhq8mGUqVX54gwr+ZX1xQRinzhTvz3TkE/K6fn5QSVlY4ywbEwryefOt/bWxdzYitZJAMx oaGuZsKQc5zjCWQaPmvWJ0xjQmLKUq1Yb6v7NMxp4M98T4+eRQtzNgjcYQbTd8ZuBJfFJA5awGHy udYVnOuZ4OfNHnTdm5oCZyOcsyTkdPopb8DMHI2YMnvy6VywlheNxg5WSXIt43yFACgvrmtSLDJI BMJbDBcVQcbIXPvT0k/idXv5Xg559c/nzUEeKCpnnLsM2VPa05Tx6KOT0cj48yPQyntng25bm40K T4arS7otwVSooI9VK0L6cAhpKNv44u3c77BJGK18lWNOXLl36NObFhJdrhQsENp5Zmc5WjMPv/Jz W5VppliqNIsn1cxiWqauR4cXOBo/9hH/Cb7pWxLZqqxIoilB7lJoPUrwoi+EdmsUI3NHkV0+gtn1 Lqi32tKo0EhI6oH43pbo/0pGktDSRGsLg2OkLcGqVeE1S5jdHMptvlCxJmO5Qu5VBfNziYIoCzQU MCnYbT8KNDItOIo7Yygop+MYlZhMLPQh/E8wJsiwg08QVIiT+FqH9oHb6P8j0p5AUFmD6Qb1Bn8+ xKcbjI8wfBfVusnGHB0JyeaA77+B8xQ63pRgCd07X3WeznSBQHD5nFkl+NmOjM1bJZBCnik/p+B+ OZY+W+7TkMLCIJjDu7CsLbZjjVU6nOc8Yzo1sFKPbba40pM40iejUyUE+utSVRWJWaP+wtX+xOuk PvSUPbN3jwynVsw8IESiy3C0SfeYdKdJd4T3F0SM43KtLCFNBDGb8i/1YFRoYscYkzEskOXu94i+ 5tPJ8tFPFz6bt7N6LWRJubO5DO1CyOkjrD47XEZFqD8vWmiCZ2j/v5lwZcgE7f2xO3GMdn2B6/Wf gqcK1WEmTrJqhc81U20K4jfLn22JVLEuvP8X6xSJRtcKcr9byNIOUApWzDelVVihcmD8f38F3yjr b2V3/LyZOGlh6G1FjptmlvUIs7Xd+c6RyNzoOp3GZDLjRp3lMOfL/JlMVSMS3I9lrpKq2W1Ip3av tWF+pPjQmEB4XYKn58EgZgnn6UdjcsiR8Vjop5v0oMlklUkH0XcQ6W9syTIuSwPhZdHTmjQxNMLg OLffG3y8WXSGDVfp7uVnFSyj5VSF1zaH3K1J4ejLr8viN79X5oJn4230XEbyMpRWmeWY2F5kwc1D 2RzMIc/XE5rQnudkLFsajqXBddv/lob+JNWfhkO1O3iqW9vo6Ag5DjMXYnN065xfquTa0jlGNZyB To8LezDkAbenFPP9vtAN0xEjuxVrf8oE91lBiM/HnjPB45xGhCzrU6SMJkxOajbhOCcgLL25ynYN TyOZz49NzMk0SjrlVTJTrnerTj2ymFsX4ENjzI5ZkJWV++HydPDpBxWLD1jhoBKSZjBjUhZnzLjz L0+CniMN3GxwjK13sPV+rohs5V1nU19L90sZeQGVdcJCuHPYcA4xfBKgB1tid4YUOUr5FC0fmbAI vIzqPP9iDT4C+r1Uf7rvghgukfh2WUjHOZQYbyDQ61Ajq9GoMVTX/5anwkvvEnS6RqY/EbhcSxuf PqAoJI91jscVRu++deH2Bq4r9aNpfs+FfxZs/JzjtQuid6VQZFmclrndAjUtX22dCe1ZkkuOPIg9 HDva6vfu1atHohE9TYnvYMyws6yVqKuakrpSQ1BTgyi/SVgNdpuKVLpAM/0YPlhKiv9V6VlrFMFT BTZ2zkfykMbuJY2gG1U3u+at2/lqytBuBkfZeifnXMQ5a/niR3Ey3+gMPb56F9lxWMP39mdihl/l aw7WCXrORYq1G5BH+BdbAhGBPrLofs75ckr6sKDkrdS/7Gj23VcQTNF52UR7U8H95o8kGCDtUZUL 8BnqNf0N+rsyvhEH70tZsOCTkuivNvGJaC5/Gcm6Re0+JXiK5uHcUvvDRJ8VBEXekxVChnG+zjyv LX9eFq/B1s8n7PKQdt3VJki5FcLEXF4814yl5mRGDDnCCfLl25fEbLqQxHmnoWi2VAUbP0GrUyVq MolBI7FNRywv+sRejMH9zXPAXKdckPuynA3Pke6k8TQ9Bwcf37eimtvbR28vDQYkjJ1ItcqX+5g9 ilsjmoYjVrKyaDwOx5aONbHODfG4MJ4Xi1MW+tn3RpTl52367a/fy4SQ1zvpOZyuPsHp3FK82hr/ PSG/8RrQP/RX7N7N4BCDu/h6IzLestMvCp7WVt7bytsjB5vdjKuDIOnp4dhTIrc7T6HF/VYIHu/v PoWX5yCBCAcsMMznpWbO9wuDPPc671vCWb5fR/nXuaF2pP1sm1diEpnfut47dDoYNIwbscUa1A06 zWDM5MtcIFOLml4Yh/SIozbQvZwj9l04Nh/AFZ0C5T9TIFupt5MEhT76w+fdbo+ByWTWGelUVJwT /uNC0ipdMbV3eBX1lFqd7DKyExk8kFtP4ONvxmphOfHxgi2WC4o18ThQwQUuLB1l4suRmA94GcoC pyDKfoP63Swo8Afj5cJipDfjVVTeRPoWgTjX6Pf9oB++Fbf+U7DWl/YE7p8IRJemBt6NrCMYFpWK wGV7Am4SUcxuZjyaj5fk21Ilinj4b9Hi5lLrW4V0iDyhOie0IQtzdLL46zCmuY6QmyRNgq+22/xK tphu02I/Taibkq/1CtsK5aVmunVh0hIDuFmvTpnzo36XeljmEY/otUS6dqjXyx86muqqsOPXEauK 6XLLOFdMcXVMGyzHWtv7Qn0TxTYTslUle/xgZDZXngmGxDvqzvtKM+84x0ClCcexpBcnUntXCCS8 O2JqbyGoCWzcD68XZugRpRdzIsz9iGUCLKP8b+P1Yo6Yq723l65b9HuRfi/Ub5/4/jfjgHWgWb8W /drtkRy+9J8CYSVZFKsZ74ha1Z9mgRIaFZNzkbi+wrzKMMu8gzjBRzLFCtYcHkOrTEEuI/FXKxXJ NGl8lu/ctFuecZJPxHypZCKYH+T7NBV8cZUz/TxolBvv81M3I/ECJzpUxRJL9OjxAeOY9RF5oDLE tNpNyNzm7miRXe7fVUktn2v2J48d5fefXu36rkcYfor+w+hpBOV49xS/Pigm8Ja9PIN0LGV8d4h3 Dj4VaswEnX84Ix01mY5q/2q3ay87nC9XSNYYkOhPjivG/PWCk/nqm4LPLsNPT+Ol0SrNbuWKxeG3 Ixb9P2hhiOxuCwnvf/LpJQJ7z7XqMxVGVbd+W/EXirz4LsGyPFUIUJ2O9SH091/oagRR2YLtgwb+ KuPjfSGVo4a5uSKM8BbRys+btC6M+TFHcfOtgkduS6mtp2OH7R63v8C9UmHO1ks9yCE3NEJuTu5U ybNYE0G/Wy6EQE8UCKYJ3Tqs0u5g/EQVq2UO1mrYjLqaqlRjfnVU0/wo9GrIhBSmpda7TJ+vugIv V00k0XfG4VPtjnjgBF87bhU926hGRCxppT5K0s7muF/XuoyO0wLWOncwfjPZPtSbSPPEajicypMm s/dq/0rkcBmS4ww06K/gnBo33EByXng2IjqL8dOU8/aW5VW2SnPIleOcXR5XQv89Clad33soIvm8 +P+ImMao8P3nizFyH2GiSDfO/Qzr7W1HAhrsHmLgNk49OZibCbLM5NwCxqpGAAAgAElEQVQss7Px /x5qo1TX4+oi53zuNpasDLT+N+sEjneBQFrNHrJwz7l8n8U8XyXP5ZiRG8jzPhGFppen1DQplnLn zx5zqse0eLkE51xB5iwNdaNukjh7vrzPajZm1Cbs7xSJNg3Xy5ykpiZTcSnokQ6NjBkaHjY0MiJJ QgFvGVrqZY8cyXgHSYWRBmPdVPel0kulnWu7uLYjduRAmg8NIdtrngze98F86frvSWpUHjaZxPSo JBLeOxnIMDrOeefxi9/GsUyCUZHb+R9fzKHs5f8y9MZ2ldcb5iJ4P0HQ7BaW3vdYuEPbSQIh5ucD BX3yTYIORnBhjAmaVK4XlQ0FWEnnW/FBA2X1kiB6/6rG5SmX9xTdqeHxKGafihGK4W3cex8fyxRW e4qH5rcSy312ec1l1Ik9+wIWb/UWojVlB3siyP5Uzh/D3ijdzvHHhm00bNpBsbafud6ozKiKYTtt MoVTNdyq7vqoT95uTnv0zr06tD75p33ccW++wcfyUHGW2OfDrd76+mt56lDqS0iWMRyzQuYbWuHa Zq5dxpX9VJbTfCTXPhHeqR1MdnQoMzmEZNhksiZgI8+9fgcDPUvCvbVnLUTKK7A5crlP7MVhtse6 08WwSSC+PsVWfwOC6T0pZIwcW3p/maAv5g7pd0a0586SawWj6Q/lwxi0qAMEwozHxStxGbsZGEDT D0p1TJj88zy8FXW6r1lAq3Zs5r+FhXeHIdkRjLGP5aR1zXxpeZg0P8ou8r+Lb4fYfa/CWq0qEtfz RYy5Ip9LkPus3Jj7+r5t3KjETExxrxiRuWbj8TYZFdaO5MG2zC7hdx+WLyz92bzZAWnz+w+UpPtJ kpWxsuUkyyWfWo4Pe+tIj1c8ckDgelKG05iZm0cbGmQZS+NOaaetpeVk7u7i2seoZ+azfqvB0TtZ nmxfDkUNQO2HNP4DP+SUJ/nCfzLyQ7Ifhnvfu1LQYCJHXLAud2+wqXR9RDxeV0Lyv8dzboSU9cHl sYJlClW9TXBWHyjsTvo1e/ceJ8IyGnRuxKsDjpKJYPD/7aQFPqfXJox3k3UzMhoI7siOQqKP7xfw nCR8tKHsMC8L8+jxnCebD8Xrb83HtiYUVmse2jxCoT7Mla6ZuiJoeYk3qmpxqkyqYVTmBU7yqSuW +ZRuzWb0qkac1eZNlI/Mt+fl8q13M3PSW++9U5pWpJWKJNlfku4vSfYj2Z9P7Y/Uirlmb32yl2c6 2DUSDItHRhgp6zoVXnhhCAH1H8NYMy1f59oXMzRB8qbgzWxCUjP5VcFqmx+znxhoJKzNEVqav/PZ GEoO66vMpzD9P8Pr4nGJYvbnsEYY1LMt3Fn0cCFhPIcqcWlioT2VXDAXDxu4ZWO4ztA8adJ7wjtD O3lbJI/5IhO+PsK993N4d8F45tZy/DHsnmX4aiEDJ5M7b/9LsFdygsu5Xa5A/H1edkxCKiAVQpq5 MZHDpCDnD4wR+dxLkAn4rpgyLGyJU5OZEFbztwjpWW0yR8lcFMPcr5bpkhnTMCnTUFl5yJ9tqjUO 9dyODku/frKWdWtIHi3akSwLyM+WOeT9TZ5KdpgdnuOANbQfyMwKZpbRGsVztpy2y7hnX/pP49k5 nn4rj9S4u8JPtnLxLrIV5iSa/ITkodDxdya2nTli5QnH09HF9DTPRB/hdMLqlSFm+QgOzRezPhiP I0uI22rh3mD5sZ+9w9LSMS5s4r1aELMHCCLoRsHIODTWu1tQ0ScFoqsKfryXIzFgiiujG6KFyWVL ya5j2y+YPp5aFvT21oS5dr73LO5j1yzLk7Cz94a1wefX2sz4tWFc2x53wH0TNvTvcqgQBjsqtrIm WI73xdY9LneErBK43DOKlDAKXa65+OX2QSq7tDYtscRyVZkDrTTtB2q43Zjtnra/Xm3ypUpVnzQe 8fS0s+wyaY17TOuxVJt2u036V1c5wb3SWhb98r+m7gzJx0iSi7BBSDK80NDQKYY+frKtPmHFlakN S0+lean5mGp2IcMXMbyBkQsZTiLXO4b+N9NSIfme+fWdlyZUHyD9T5Myk5mwuac6H+k1MDEdPPtl +BZefwsXxfvfFxG2LB6/ZeO1coGw50Hw3W+1cBfQMmwSxNDrFL6x3Eg4VshMfrWQwPlYPLYK1nIe q3yrgZyj5Ht3NRoMfyqolDNoXE5TdBCnFb4zJkyc2NZKGiho651Bl5v7dXBFtZzDSs5etlvrD4KW tkKYJttR2xhaMx5LKlbTPqnYzuOhUn8bArd+Gg8HdfU94daBEnlKTotvh+VaG9msTW4jp/N+vlF/ 7b/nSw05fZkznKxbp2H/5luuQlBT04vqb9dUf7vqhW/HjfxlqlpPNDUSSZIYGhmy9b47bH3hHfiy k97/Qau7XuOyp1/ioG0baGxQhE/EEFaIZ857FE5FyzECR0jj+on/IN0WEJxmJv8lEsaXkyBKbx4I 4bML1gUUvjH26EvC/0uXxsLzZNIkrjuN+t8ecCJ+Ys84bXn3gk2l60sEHlIm/nsi2srQK/CUsEJ/ wBsV6UjncfmJJvdZSstbAsG1vJXBy2jJ6MgCg7wk9inPOr07El6CrInkIpo57YDr/XEPadYmywJ/ ypciQnpFQPkJAhm9QzCFFsLRJRyMCdx7OztjSPAbsFIqc5Kj1DUMe6k7ccAVrJdp06ZNq1atMqMy 0ws26gkRkYdNxZ3puvyxP4huqTciec8FQVnajJPW0NUbmNdzMQ669V6yylfASWtO1Nvbt8A78EzL 4X6a7wGXLaq5fP2LrVx4Itsfoef7Qrp6a7BqawXBtg8NBaT09OrvaGN0KMQi43MtzcHxWq1wYR53 Ky9X+XmssF/gSH8U759g73CXQmd5wfO8Q5G//av47ikC+y13dldcqH6uoAMMmjTNp7oY2R4yUCZT pnqiE+DrtLyGG28KRdzR4ISMbJwTjqX7BiovoXnQBQc9YXnLM5o7aSTtaGjKpu372sBn91HYtfkH Scq7OC3cnO2A+PY2dvbEAMUMpuntdWjS6mTHWGYzXmO3EUNxc4pWR2rInGiNztKetuN+ZQcud4D3 m9ZslxQ1r9UudYcdOnVItEqbG2Es16VckMSd8nezdSt3fY5KRlJ/u5OOfrve3tNwOMnhZIfzscPt P8NlT7BymyL2ujfiu+jEgJ0VTzN5GM3H8ifH0tRKS2tcmIy+pXQvYWTUwBtq9C4NYqhSZWw0xGlz v+3P80ryNYSECEQq6GcvjEjZY0uYvTSwzP227uW9PBS2IZabp0jl6+QZsDwi4SmB4L4Uyv9Ejbse 5b77eeI+ekZpjvV9//uB4yUCzZ/Zz11n8O+NINln/9vJLffbt2VIpV6VjFPRJDGtnoTM4bxlwwI/ z3dU6Sj1LmQQnihwuqeD/28QzSPF+t5qKwnNMlWbo7D/ftTbMq1xYXjYynpWFt3Rwag4S2IF5vxD xMJfI/M9FRUn6DQhsc2ItHYtTZup10IDTxxh6120XgOb+DUnrqGvN+i0+XbzIad/UzhnvHSUlz2+ aHzLxJf/f/XVvLuNS+J+c69vJ20LR0u7ySTGBT88jcTA6xpkUdQsXRp0nDQu/Hnx4sIHI/r7w3mB H+/G0rE3WNzY2yz6UISgQeVO74YgLM5BzJ5xoKA3PhsJjhCvneXbWWGBd3eQfi3oeBdj/RNcdAbn nRYjSTfiPj7/YtpY1jysEl1Uc1KZkeAvyDosEwZ4mWK/hSeForcpePhKnGtreDImENlDoh94hLSF aqrLsdgRdgPcmG9g+kutUY/rUvdiJzpAxYc37vAhNVyt2Yj9dccx2LVgN6gh/6ZJkxGjEonkv2RZ sjFkGiUVpg6IUSxs+WsqH2f7aJgMvcuiapnFxn4Mf7OQR2T4UQ/PlXeUzQTV6JaPF1i48IVBX/92 PoZZYLlzYSV8e4bL6nwlob2qv7kpzIyR0UB4v7+Fdet5UZ7GW/6Cza8FRXKpPaFMXLsVsUgK8Zov PsnsuctvDjvlceggUq8XRrHVpAcE7vstIe2pk2duI5nk8tOozVDtpOnruIzpwYD0iTrX3oQJbgkq wiEf+pVjOhKa6e5rUslqal1LNBlUSVid0rMxoHqzIufmOkHTPEmRdntLbPVEvnF+rkZqovU4Ju+n fa0/1aHFj+dNsMzLtJuw1QNeqt+YXermfFC3L6lr2GLQkRIjRj3rMzIfEzjdRzDnFXpU3Bl8Ryov Wf/uTe31ZvXJVDLN+JOMbWNuJ0cfyzevZFfGMztZ0snEbPBkTE8xfTrTc0zNjJuamTU9PWtqetZJ SbOuSR7Pd5XMxM9nXVOM76GHcXFJtGUC0TXCjJobHtL0qi5GhmlvtS1h5ebNrFwZON7+fSHt+/aZ GFRoLcryqDDP8907nw+mBN/S/YLYield8wv2Es/vZumQs/WQaTYq8Jopc5JY9ploZ9tAmKkrT+fc MbakdDRTeQGTGckM9STofActDX08/QBunjJ0caa/MzMxV9PRVlNvS7Wm7ZKk0woTWhI6jw1my+GC 5dgj2MJLmN/UrEPQ5HZjuimsBA1dbKX1MPTStEyHqtM0SRwp8aDES4QvfY0Zd7/V9jNrQkXdqyUS DTUdWjxgzrgpYa+V9YIMqDlPQ4sZlbhjX1V1vHeZ8RkOujKTaeiV8WKSlsRYVveX5zUzwyd/x91b mD6fSnI9lUQ9Z3E5R/t55qQPhFTaI2c4dBs/7GK4nFWudJ3EAuZqIengTRnfqIYoRu9Sk2jv7uGX V9NaMfBN+k+JBDqSLGRuIUug1BhCnKNfwfHy6Z2fyzx68ZZliaAD/U+wwoD7BY63FZ8w6RPCMHeb 329pZZ4dczku5a9SPpMF0dKFiTTm3v0ohoFfEhjlJ2tU6+oto5ZGlbepqS6sKyGxxArD871pEqZZ TdgXajhi5XEF3z4ntuS7bUw7mOntsb0JbjLhXMMa+iQSL43YquFG52HMNTjeAdqNGLHEnGc9IIk9 7sD7rPAbO52rU82whiUSif/yQ6/0OmlnQnsr2yUqDlFVVflZlRm65ipaZusqrfzls5zjIBuu4Zz+ c5xzytnOOeVs555xtnNPPdu5Pz/buV7v9s9sNTg8bmhkwtjQuI2jnL9NaWf+SHm5EvmrX7Dlat6Y oR5zsKvUg/I4Walw7jq+GVFb9gFs/nVh2RKTSOqKdKZEILzdpf8X++7KcJUgmMrP7ooHi3W8IFaP FjSfUyLfq5WOfEvbVoXT7hsBBx8ohc86GiT/EZhyK5KM1mm6dtFax1LfRl2IUWd2WIYsxojzjTb+ 8d4gYvP12dGT6iCBh+fbtlQENB/gmSBWZYqFQNd51k8VZJpJ/EIfxjaGO90ymYpEVWJfWezl8KYw dQ+009nxiyyddkr82Kfjutf/9B1pMkd1jtY/ZJcntL6M6oupJJUg7maojNZULmaDJ1z4B7Q+SNuD wZXU3GBieNzY+8YlnnDS+06y9Z473H737ZYsCR8zObTGuu1TNC42L0q3XB31uNjXS34Z0PH1jKFB 0phcmFSCwvkvYR3BwJftnV4I3oyZX1u4UnpvL//fnv1Q4bXPM5fZ07DIYadJU/iBYNHmw7AiPs/E FUpC1lsk+vcLSKykLHllVOpfSO+wl+//GN3TvC3xPfwxvts5HHfHWCXLKpZJ2Ng03+pLjw0a6JOK Xc/ynZAJTqNEmFbXoWpGcCmMM79Z0lp3WadIkmoYdJYGeq8InHSZXimW6LPTsDsFb+ejm8L5BoEw x8xpGNPmpT4Y96d5rTdID2lwcMyDSV7GEw2eSeis0FFJVZKKNElVZxuqL6lrNDivERhR013U76K3 u9OSjk7px+jt6XDB6WutO/3swJozkga9tYaewakQ/snH4Q0JtaTYnOOSX8b1BBgdDkSfZCaTJBDe m5EkBpLno7rng1s8/wcoc0gWXT+fXy/AwIL/TlPsLJIKRJqL8XzIOwQ2XU6dr/PeXTTN0jzDirUc sJ3uZ3VVazHOGnxaSedKb0DFPlZoV0mqUs/qiRpkOZSfKxk5nyVYt9cJkYtXqzhdGnY9zh5m9uHY 3vPQ8KSakJb+83iuS5xbSm1oMmpOw5w7FkV38m8g3aAWNwabk5pWUfUhG1VVpbVG2Mnq4AYHJ4yN hWbePjJn9KpZM+OzJiemjE+MG5+cMDcyanRszCmjY067ctzs2JipG8cN/W5cvcHIrnGjuyZsvuEG Q7smjOye1Jils6XDxS840/LnXsTMxRwfU7y/e6r5mV/HTD346jK8NQn7fmByaJDz18/TxkAWueTV v7ZIuRPM9v5F926x8Pt/OexN1Cbidkr/vyCI1Zcpi6RiJuWLW/Lci2lMOdNuL/JN6+zw4nfvdHHn Tq/pGHJJZcKlS5p8J0nwOJcnvK3Fd5KGtLGP9izVklZNZ0/oTYrWV6UqkvnPMO0SHMWdQuT1emVI jGoYxSsTQZzPPSKQbljofadfxI29fqlHu6pWdedLYmQhiT0vr7AoY7FLyC26w7SGTCtSqUQiza4K LprByYZajV333uqwhN7rmjzhcI9dm6lmVS1aNCfNmirNOusVXddUpI61bktFmqW6GqnffO237vjB He64eyu/znR/7hhdHe00GB2bVK/TOcv+uyd5/yuKFs4bGLHZtYQPREJ6WxKSQnv7GByhr7Qf/2fj b8pLJRH4UN9e8u0G7J3wyvWXw2T/vde3BuZn96ZFT8r7KB0vZLTlK1CDk/MwmdeZ8Dv/5efY7Hfh y2xvSHQmieZqKvGASzuf8ObOg1zatcMffmmcpFlHpdn42Jxqeq/PV6i8en+Z3CWSqKparqoi6FZ3 3r0wxbRFcApdr+YINDbGBKumOZoOV+QN1o2ie2P+8ZMtSExoqGDIqEtNsfFW5wn88VyHzOerlInv CvTYrCHTJglJAl8xmj1iq/ZlrU5Zc4re7sBEf/Xbmz2+m2RpmE4nH3uyXffdqp7UC/zuzkysQINr Y8/yCsczzn3uLCN/OKlvSbtGxq7BKR0dbbKU0TauOvwnLF3G5l8WrTx3fYg+zM7yrgpfrRdWbrWq vTnuBSLhlgH9SxIuXM+GaL3OxN2PWnJOt1AQLrRmd5Wer49DtUTw8+XvvlgwJI6fL2FxiQvjHfn3 zzIhVvu0YpuA5xxqTmpcpu5hTzhMF+qapZix4T9OMDg4QvJ7acbtt3LCKfQtPVaiTa/U4O4BZ7wt lJrvgTCIHlWjajoV32vJx2NEi/cK02CLGWcoPI1fdbQg/vMd42dwl/fK91A4U69Oh5jRizm7o0Fx j2sEi7jhMHUTMolrPDOvXExgrUNdGXcLOMgZ0glTnjLi8V1DRq+dmF+ztuGs07z15adZv7bf+rP6 9S6peKKRqNarmupNqqrOPOssvfUWLY0WG2abXVhvMpml0nqiI+Ha5b/V3WiXDdMYZFlvm4mJKSPD UzrG6f7Wch6tcej6cJy3nqZq8FdVUr6ehG0Y8ukzVzeZVbnllnmON5AIUY55MVaGpfYUs4utWYK1 O7ro9/2CJvSzvZRLUJlv2cv9/PueM6X/h+QumYaKVFWTimMc7ExrtGqSmpOaM/qqaXfc+ojbbuHW W/PVC6ul7tUnlRiw9m2nGlGkgTYs0Ydroovg2kW9o8V7Vfxj3EPifG2lj6K02W/+C38EgdyOs9yP XhfpjQG1iusMxd0GElmMeqZY43oPu8F2Y55xoRUuEFZzvEKLZiPWCnv0rZJIpwxIJGrqxiTu/PkO g1cyHRcfrRb35su4cHe/w8/sd/gZp7rozH59vajRkSXSLJXurviD2WbHH3Gm1qlWvXPNmuZIG2R1 6v9KX3ub5ixhiu4RznhunJGREGl42yh3DMbwSBJ2fCKsiM+SYADmrpcSHQywFxH7P8HzuVH2Bkvt uQkjwdA4dS9R3TcKc7xVcFKPxDIy3OYER6tIpFKpql5LrHOaC53mJNzsHi4PzogsSZx26lH2Wdqr NyNrDNj3ldTdYtwRehxr2H4YNiRYrgt3EmxFq0slmDSESdOGTOvVKtNqyLTVdgmIvUbgdBWM+63j 7TZq2JjEryVCutT1Hna7R4xhvRM1uWd+o4O7MGynihWSuEC9Wyox49eedIPfSUMwtup4KY414E6/ t9Oj47s8dOWQbT+ZUv8Jq6+EgyRXBWv0iaiHXXTmKS487WR/MHyyi1zsopGTvb6bgyQqs1U3Xb9V 6wzJf4ff+z69SatkkqzBk1dtYVc1bIFPWHrwhLgYWbFHwlujqvqmzOS5F/LLX/DCFxabWlMs9kow kxNWidst0PGi3vf/BActEq2LV6ltKjUgoXGghcml/Nh3XaTfOqd5odOk6lJ1metNxS8VJepcnmj9 apNMqtVWXkXPxtUlHY4t7l+ggd4W+3cykajyp9M+t5Es5tttlRk0rWragdqtME4tz767RTALOuNH lBu4yRwe2BhMtvOtkcncrmKoxDOTWP+dGDapKol/Ez4Rtuvxa09KVvh5lkj8L4njHS9V8YP4qbPO OB9PdopUaj9tnkZ6Ium+gfkcQuEU+gWTFwYaeTwJ7pL76mHfnI4unt0yw1q6OlpUqvzi+hvVauy4 aJAfz6CZP41l9S5l/1pBfOq8pRri52OD7NNT7K50a9Tj1l+ofwNmo07WXNbfdttTG3uRkKpyoSJ1 pUfQ6XLxuks5s2Ax0U1q2FOEX44OGltDIsP8evvPe5d3aDKpEr/MwM74PYYZg25wG9qin/FiR+jT ZWnpq0WJMCdv1aRhzgn2t8wzRoQpkMdRlsUE9kvxTVVDsX+Dih3Xp3GYiil1PyBM8Goeva2hxUXG HKXdZtdZJ+QKnOgo+2qRmTNuVI8ETxlUJI5mQty3V4tM1XOWeJdtXmm1NP9k7uck/reqpZY6TuJE J5uJe+zc6Q53uN1Os9rUPLu1Ye7nNH5G/d7gs6vPYUPYXCbJWB051D5jbL1nq+Y6nSe3qNSaZBlb rr9J/7GnWHvaGdY9Nur/MHbe8XGVV97/PvdOkUZlpBlJlqtsXMBGyF02obmDSX2zgVBSIH2TbEJI 291PSJy+JCEQAtmQTUISSoBsOi8QNwwGY8uWJffeLduSNTMalVGZe+/z/nGeO3dkyOfzXj6D5NHM vU85z+nndyjfCnO3wrbtsHW7gO7szcrNQQ7crxywlfyezpILh6C3FxaaCIQSoriUtEZfxeLU5S3a +JjLF4ktFAqB3nQt4E2FOS7gHQEGwLq0OPwLlKAKgTrH6EYhFFn6aAdKTZRhEgD7SRb0wytQ+Kib M9DkTfjrHCkSBYIrx28r1Y9mgF8b5R6qxMELzMEuOAx24dIOxJlWNM4cvuukgjIUCrsQ97gc8Oil n172U01UOLN5fkfR6rYDGYYBl1pGeJjrsFBYHl7Bf6KQorylLOUGqpjHPIaxGDYcr52dtLGTNK2F JJaTp4D14L4hqW75ESg1XoPJ6yn4SzdsayMeg/CIRfkAKBTtW1sZyTpo730wouFsPmilOYKI2tMY 61UFQDSJpIFmMJVl2SysNIRnmFxAfL7wqUE40qUpTFn+OfymQzFRvjUxFxFWAcvlB0V/DzxpHyFi Vlm28SGeKsIaUUgcLM8kYAGOIYOdKEOcfcxFMY/ilPMq4DBpyhGCW0g5leT4CILKDJjorAbiaCqo wn1Tuqqnj0JoEUHsOgJs4hCbyBhcQMUCwKMdTSvHjPA9RoZBeqgkx1jmU805pBpDIfy5jyEshghz lgo0lmXSQMIooliEsPg5UlzXwpVYKOazgGEsbGxsLGws2thBigYqMbZZDvQGcDfBUDcMvwwjNKB3 wAxPgVZs3N5OwlTWRfvCWLyfPW2tlIXg+su+DylPoFL7gZ+bfsvfDcHGtGQKO2ZzXAcqqgT9vzIh yvzprNnbENxn1m1VCy1004KfflSDRA/e6lIE7pJmRByvQ5TGtybKXAGf7xIgcAvEN38bxbDScZRZ QYsfmbT3h1hX+MxUfA7nkgBuKeigh+gb5XgWAlvE+GJcd0MEoYKD5ke3YvoQZovAQCy0mensIh33 JmV6IACi120H5rIHaKWVeUwpEB8ckbLtW32OlqGNXjIMosxoFHC26P42LhZpFCMiXhVWAZevhIDZ JDiFw9uoJYyFxZUsLKiG0qLiz+ykjR200Uobvea7oV3iiBzhFGNnisvNn87GbeJYVSWKCH8mEg1z 4MBu6qpC4L0PBjwZ8SzzhbvSUBuHdiUcz0UyiC3gCSUc7w1Bks0VN0e9D3jen75cLZe8gksTGBWX WrNikLw1lztV9J1LLwtxjfrKvMYypZoWIb5k+NBXWEGaPlo5ZL4nwSwF/O9z/p0vLzzBB8eZD4yj g50Ir+5FDv95bEaYwP0EMZGLlNDNEB6KwaKxVj0n+XdXU2kErouceB8PsA00jBBnO8eoJkYrx9mJ ErfMcwGyzTwq8Q9PAbLvOfFStiGGRZghFANYXUQZNtqBRNzkJn0UsNN5AVjFQhLAIIoFzCuQXrBN ih20sYN2ehEfUhmgD8CIq5gyrBgaVrgmFut6CiKm8MlV9GWAmYuklSYIHdxJkG3suXDQlvq6VqA3 G0iCFQnRjlNZchnINRvF/utvQQtF16VE+GbCUoZLbkMesOdNn/A/V/xDLp/YfDep5oFCfEAyNL7C XUbwwlQ0vudtFTNIMLtAcNItGspNL7QETWgkLcFPYR1CtK0IVXyZPOeo49xz0EGMQRRRyumnB00P UMEFhEg3gZFdaYIquX7zWgRqkaEPjUsb1xtuoBBzqY8GVnAZCXqpppdqeqhmwqjUV9/VonBpph7L m1BOKlROPwGCRcz83keQqXDc3GAl8ygF5jO3QGyqsNrycwe72EE7QwjAi8+0hjQM5RVnu+HKaXNw UAwOKjJ5xfpD7czJApO+Jx/0I1LFV2dauF0Y023XD4EoWJkUqhlywUsWmq/k/nTJPd7kMC6uKAsV EWCSllGfe4lif91o/9xcMCV2owlPMTr4/22Ei1lIp8CQ4WmScV1uXUAAACAASURBVCFf9X1EHnCl EVYaj8MFfJJudpPiMoawDOiuvP8d4ALHeBudbKOL7UCOEqopxyNlyqPhnDFatpmnDBNmk+dD2fpH z0Lk1iAhGrmOfgNmsZdrudwU/aiiz/qqAcBZdJE76rT5uROHJIeQ4oMxEfqqyvgbIYYIVFo/8dff /xuLMIb9fNwFRSppOzuL1lyxg13kgaXM5iZmcw+zaWI24SMQcmHauLn0IO0uPBROBvEuHvuWQR4n yLB5ZB08ERcd3VfYN6ahTQXtnn9dJZrrxjT0LYJNCjTkXiEgQuCtIxX/7Co2PBr+6aeES60pOijF IlrhN4K4nx8YviWr6ufEwTDte8UsSXIIH14V8miO4AG33iqlqWlgm2EDU7icyQSILD9FOFgjDTQy mQSV5LjIEHD8VskyadOyDh4wkyT9dOFqyBV0MB8OTWAWj7GFDLDU/L2Xgyw1lf8aB8dHuro1mG2C WKF/rL8Ku3f79HSb1gXhn3GgK8Qt+yVJW+wd+WAUyQ5TBN2DfD/ZWtpZwBx2mELn4oSehcwma6Zw Apn0WcQ4HUTU9b0mSXIGTYFdNnYjhDbBLTfD+pdkfPuAe24SUeuL10RSzOYSW9wr2hY/XtKctEwa 3psMZr/Uf4BJCkUTK1CxL6+L2VWxf+9GYPE/qS07DN6MS7jzX8xz9iFH+Kt8lf80d+8DHNIcpZXt NDCARZ75wHTmUNyMyWOYFKfQSJVqCijlCsJAP1lszhND2qNfBTQxhnJKeI1TXEUdETwq6S5kmvj7 kwUWM4ZXvE6RbB4MaCBsMoAGdkHZfGCAd7K7gIOVYSJVRGnhKHOpYwVRLNOL5GxhZSeR5nRx+2SD m5rEIqvlaSCiaxr84Qa4MCZAujX1WaPQ7RVBl/IbC9xOFYhNznbtqA4VHjAZkY7jEDSOMuAyE0y3 KKpIOL8MckvhgAN5w/UagZ60EFw8PpoJDbli4YaBqiRcTMMLhlj/kILnUvL7Bgy+oJ9tokZxwRwu uX+Se5fDI1dwrV56RUA9dcl7gVEyixjwXTzKjFvYMgK1mkmeg9Yu84EE8wgo9wAQIkMYxcQC/4tz Ob0c5CIHcTjPL5leSFFoZCwVVOARZiawgy4UZXRQR5NZwl7zWgSM4LHAqsXTxQli0m4JpWGoHahg k9E6HeZRTRm2cd7owE+EQghLMRE4TTUw701GlofN9PvW4GiIWLJxEdm4fWNhax1cfsZkUCP6Xhly QnxXoSPLTQw4RicLmI2DppQYTYxjGArh5ErkfP+ddiqoxzXfuwBk6aSbTuoZQwhjQQ9OgaOnwDGd 5ksUjDOFOZkMPF4Fi/3KH4yOZ5uBxoTbtbbAhQ7o7IBMAvYPwswY7BiEMxE4bcEUP9fNv9cweWIm dB8jT4I8HYhme5mMpYBV518DoOoZHVo7ZO45ng8wxLUMGf03j2KE+3mE+TSR844x35pFkokoPCNB dtENDHIRqOd1eshRgk0VGU4VmMGTwD3UUfP7GN5vs1ylJvDIMcXiqUcYRpLpU0ZM9lPGIGWMZ4AJ +M6gHINUMtWqpVP30BtqQNSPKORPQ+lMGNrPSOgyxlNBDSFGGMbiiNH3B03pYTkWVSiqyRa0ONnf KizOo4kDJxnCenvehVgIXjPdQX3C7HHAXcMvlkNnRdB7txi1Y5mJNfrNVlYxmxwOefJcwThsGhgi gB30dcPpwGnaaKUB1xBjg+F2ujo452FcpLGJBac9OO4J1/MIiut/TCAp5Q7iaNbAfydhQXPAEdta 5PXnlJhtq0Nyrw3AxiL0opHihIDiq5i1XsrxtJllsUDxi7bLjMlQg8/57jfNLn/B71lgX0mSWjQ2 GosUO+kGPnWrjOJ19rOTFHHK6GUEP0W01xD4Q188SCKh2L1qEtob4N/0IX72e3jmS37PnfOMIJDT FZQwbPah8lZhKC4XSJNiul2PVeBcW43+tAdKBCRos0GrsxGCdleJdNjCWZNf7OHgMN6ffsGv7o1a PfXuJUM6VhalbcsWKhvn0xKPyl8z8rwbZsK4Cig7D4mj4I5IqGMhIipBzrZGiPFJCq2y+RKKNEJU Z81CdQIv08YFRCn21eUJzKUPcbv5BSRC3JtJYJHG5NyF5sO762C8JVjHyRpJffYpOmRLfV1/VuK3 FvCPF6G5Gba3jFbXblw9+t8h5F7r10nCRdSP3RbrdSsRHuGjfF5tZuGXNucRN69/Pc8yapiP3wf2 ImKpDqLoxcZlEh6aPsTvN0SaTpSBz/UFtgaWMIUecmg60RgMoafhXxNTKUEwfj08Uul+nmqV1ZsB HH4AVlJOnBiv6y48DYusoK+YiOMYF7HYShQpzdZIMeEChPpyQAnvpZOJRHHYW1iyEFOYQQ/VxIzS cI4OArkBlaQZoDvrQhxCVROjOGmwtMbe7HETkL8J+rQAP1meiPZ8LaSTUNYDU47D5gE569PMsKIE DdcBbkORQoLQA7TTxBwqgRbaCqZ/Ao2LIgOcoI0BFGOZQygKeZOOVsJ1uNEtVAyvoI/14FiU/NFl CA9IwJ3dMK5GohS+pZvNQm0iIKgbV8sKLGyGHUXeONeRCAZgpF5gGS9DTtZDULB2h7dC1H9I8eX3 OvK3ofgaYAIxAxWoTVq5xkNCYb6JrrDwiJCmm53OabDK0VY/NhEcHJYwhyw7galUkuAxckhSQR// TUxQUK2NkFkOuw9CaDx4HRxethKe7+XUO3o4zCGuVlCqasiQIyz9jYAKejhnqn0XI7Kr3PzuUGhA fWEfZ+rrjd49BR49gbKuoCc1wOF4NYuc46DB88YxTp3j/BcxFHKR2ZSRjvfSlgWrPwr7D2zFUoqx iwUZ1noJlCPEtvMA9PQIpgl6DW41DMyDaVeKfrYL8de2ITbaR1F8BEWSoMeJZg5tCOdygSbmUkfg mfLwM2A98VINQ3kZlJtCKWvYB4ORJXKMd8vGhadc+OGwtDjywx42YslevEREJpJCeP/s0kjW8tKV cq+tLfCFlDjAvoAs/JBfk+HbgK8zqocWVnDyDgCnj9I6vIdesjzotzzCIopiIhYNJrsuRR/drKV1 8CLatdCuDV45Wo9gOR6anQZe+xiveIdBn4InHcF6zk2ByBQxoqrHgzIwHfZUsOsgfBmHn5OIxxvA RirJUE6GJBdJcoIQr+E3E90KJgwQKEUOUAn1GbanDkiB5aMamMKI5TBs2/T0HkeFpO5Kcw7PG8+4 BxuY+AhMROMnsWoNVtkIpMKKuusXULv1h4zFQF0YDhfx4OhOcZv9ErjorEG54FbAxTAsmCtJ2fuA HtbwOhK1OxmVIfsVAjlggDUsZC4RYBCP6cwd1Rd6gHbOmRQe14NYqUTFMgX2I41lPTS63DClSoMY /gsHNjrwA22adGdNUzWgOyV4d981hAdCfOuNzef7br9LwP1uXC2n4fUWON8tmcpfbTYuF5/gfJ5d SuBUtECdkbdngqooxdYWvxryYOQeMgXuZgHldJOlm15aR/6XX28FrTvxdBzt9XHIsXFGKlkRkj15 +VbY6cJBHQK1FCYugeh4qB4DmV/JXOzfwfLrYNl1QjRWBDZsvyTPwWOvA23MZC917OY0+laCJkRs RGJRvYbwtlPA68vDYw/u5YQXphcLO6/Q+ZOQh57PIXg3JqbqOC5u3oNHetEPg14lOX32zDlr1pw4 0sGYSePILVpO3SxI1sOxQejokoyR8Q7kTsOi00uIT14iWfQaxpbBawdAV8C8YTjBEnLAcQtGPJiw ACaMg4n1cOY8TGAJWSC6CC6rHQe1cLxL8umvYB5pNCNY9NNJabQee0CCMbWcM4JgLTCeEKVURjRl JYrBCgRmigh0GYT03TljwZZK0l9lBGLl0JgSq3badIjFhJBiscAQaUzJ5xxH4C1mXA5HjwrMQ2kM +nPQcQ6OXgbrdVGLissIAPUNFatK0HBbaQkX82cYi+KCGo/2ukjYYYbop44YQ/TTmt8Dbh11NedB TQRcjhFDofGUx5TQYl7Pn4J/gYPEIDQO/jILKsohNyiIV0PTILcPSj4GypKD0zABRhw42QFjroOO QzDtHUCX+DN1D1iTgSZ4xyGjJAIfbCZAGB1ASrUnAx0FfO9jQ4s4lO9nRsjDG6rEUT2cvQHqRkzi t1eJdhVe3gN7DJadpmQ6VNWAWn2bo6PY9GbzxOvD4Mk4zx6CXTtyxCIxPP0+rrxiHjV7hHOEr1a4 PZ/k4BHhhqbpMm9z4WiYwqm6wYG+Jvl3VQVktoC+CuKVRp1+HXEWKeh34cXtbVSUzmXPYDuXR+bQ FxJDtNuC0MDfcfwES6uZuJcoWLn5iRp9BgZIo0iiE56xQlwgDLfZ0PoPuK4Z6pOjfcCOIyJVAynj iaxOCAFZtuTZK6AnK++nUtLpZ2gIrrZFXozcAHd2yfO0B31ZiM2CEHyQLSSpZOO5V7DsXSgl9umK urlMwAL6ebnrNdyRATw3i7IdVPUwx9DMK+uikhvYMLwTrUyr50g1cD28XgWpNLTskrGvvEZS/gES VcZ9JBEZXFcO0fmLsH0PPKhFlOBBeIbhaj2GyPoJmnWOADE4shumz4CPOzBlLDhh6H1RqvH+C24b mIzFSULfBu6Dm2LVpC9msDVUJUCpKYTLS0HtB+17J2KgSsAdAN0HYc/0YUORG7mcMBBWGvcajXe1 JtPTzYsHZnDCmUEO2d8pM2B4EZy0oHomnHRERzixWwjTy0N7CNoPwJEMZF43WtA26BmAQQvetngu Uxpl6sdG2tE5iJg+aU4MiGahaiWUVJIlRQZJhHQU5MalKalPEBnrEklDSaGjvQPP5OGIK7LpuIYL WpyNA4AOyRpf7IbKuKAOdHcLh8znBVcl3SOrlzbOItcUQm/VogJFgO/H4UtK/IR+tLkFnjC63rJx SZS2WFp3JUvrrqOXAdJ8jV76WFK3GM/RKCUe0aayJqy0IgH08gpah/B0GHFwVAM10lWy5WnAlmeu 3yqHQdlSW6IB9XPTGCcCkRIYNw7efSN8pUTmPXLWnDxb7tu3W+6NjcQW9wjHm94Ah4/AnpNwtkM2 9AFzcIfhcFkSx5nM0H0NQAN9AxkqK2HHg5C+CJ72cIc89EgtmjFYL9o2J4dcyqvC6BJZc3IQ1mvw A119+T3YIYuYrRjMpnn9wG/w86ouuDM46l4hYDoWXD9P4NdmswaPNRKg3gvdEegKy6t9v1/A0UAv EN8Dahjad7Wzd187y+fNYR5zyNOA7i46hBUK7CzkevHT0PuwGAordEgxlFrLcEwzUps2CLs2fvyS GStBJeCoC//jwsN5eGARHHTgsAO9VfDkP6CsWghNG24wmJcGehe7oLQUhg0hagy3QAjvSFQgzD7V J3H9fwXmr4EzbWw8u5nQf4dZ+fwyen/YT++P+uFHFrlv3QM8Sg9pbpi8iOWTmsFTJKhi+cROHjJ+ LktbHPZsiJhGfmho+Z3Z9d0Uyp3Xt8gJsEtg3WPAvcDPpemfVQKRGPSNwDtuhJePi6efDYbwwlDx Ntl8ygmuPUAV6JwcxNYDkHop+PM3YOe/tzJcXomdV6i8Yr0jnVOvA3Y+DN3dp3BdD60V5C0ULVrz W2QAeZg0CFO6oWT4f8gNfIK9e24hc3EX1SWzuX7BMrZs3yBdVod9rF7Fqll3U1NRQyk2IUsSZTQf wnW+gdq+hqrF8EqbcHitZey6kDLbxuyb5woEgoJth3cxrGQ49uHZuDMEDjeTB7znhY6icdirDTXW wLQUXNguqewhoHE5pGzYOyJJHrYSVu6koTIJWZi5R5FEk0BJWzPgpRBQ1wVXV4DXAw0JKYdUiP9P e2J83HiTnM78CLAisCkOpCXWWzlN8oxKgMv2c4+lsO0DuGqYSKiHukyaATUI+rvY+tOM9OeoKIvS P9xN/BsRwOEsmjT/y46BceIRUzbEkoimvwnu06C3A/MMdzU6TfMcSFbJWFM/hvjnjVtIGVXC6D/5 POz7CXx2GeJJLUHEqR+dSctzCmnsEVgk4hErAttGCkSH+jT0pLi9dj/hvj7gpHiv/gtWfQ02b4bZ cydQOzZByOrH5uNr1jAHyYDOQXYSnKqFY6X7Oe1cw9CF84TVGK4duB512uO0dRrlKSrtega8TlZc +RFqKmtQgLsNnHGavOWR1++hv99jpPZteCGBQLt4DLyx4JSDrpR2Y96ksZxJt9N5spPqynpq4vVc ONeJnYdsWSdnOjqJefUMlgDHLsCEKBzeAE1T4UKFOAlPvCp9zBSCWh6vhWQZTApDrSXw+OUWlEcZ 393Dku4YC/qbmcEEpjCeGsYzlQ7meNDYV8bsAyGcgyN0deegplRgvLQjOtK4SbIpHuIfCF0W+IR7 hkWpd2OmGB0+Z2XpPd7HYMdpooNh7Mwwk3Ixejv6qHSWMHyqH6/CZVvbds53dVG5P8HhpQPEiDDI fjq64tSVKGLaJht5uyGIUyZ+PA6UdGSkuRk6UtDUJFwrPQTVK6E3D7E4qKiIVC8EOgzhGGwdgl+f h/dVyT0ImZ9D5vfLkFNuemnvGQ9nO8VKnFEDp3LQtFykUOw59ma6mG73kIjPYmTkIlwjWs2yqVNp 2XaK6ngn0bIMCq01x5BFehiRWqXPyEPOpqBtOyxrhu84KHJoHqaqtImS4TiNMxdQV5lEeeBt85O6 FdZiJf4YAO4uuCRe2SZZEHsi+Ng4YujZYOV2odHMvHYOlXFo2bGbnAJnCDp7QFjWG7K785RR/rVE JeJVsM1UhM0wfrgT22HWSuFQEQVdaRYei9NLJe+k0W9INerSZnldWujHYRC4SJZDddXsnTMMMzwY kVCQtNZcJZMeMkziQp+pUqoy7Wm38vmGWn7Ss9kwC3G//jpRSjafZ+PzL6KGB/BcF2UN4+zfA++G M9aVLP/TTDae3iZ1PtWK8opr2cHTSK6vgq8Zd42yoHku1FSBXiOsR1mQyoqRsXqZ4XAWcB+4a8CO iEEUr4BT5+H5DfDsdLMCfqguCxd3Q+04RM06LZyp2cy1vFII19Ewdzb8VAqPpwPhFXDD8kb6spIo V10W5pV1+1Gvwie+CjZr1qwhIaeSK9bA4SXg7REizA3CrHEinq77HCzdAG/7DkMXTtA/v5GxFWWU 50tQW5UB9f8YinfDWQUTfG/WLvS2OXgdMIk1KJbQ7RrsaqTWxhoCRT0hfs6p01VMqK+ntnYMZ1Kd XLO4CVUxhvx5GGIicA7OW5KmMpgWzrZzGFHek5BSkN0uN+86AVWXcflOm8syg0xkGdcY+K5C+SKB m+6rNNDEFxhmPB4TaeXXzGA80weiLDwWoaVFQU0IEgpYYdbIp1ZX0Ah8LjcGGDnB4qoqLh8+zTx1 F0uq3kvj/fdy0IpSWZWgrraU85nzqJHt5A90yTgOQe/ldTR0TGTS6gYa4pMZG53CCwWc3FPAZOF0 WsOieUJwhZrbV0CtFF20oxOmNMgM7ftEYpZtAneZ6KZDI0AZVNbBD/fDoi1QNc1Mqkr02wvroe84 VBhH+24kP83VECkVYn42aIuQBhbeAru2ZBgzPkFlPEZPbi/TnpRz+LfXfaJD9ouBJTD3afH0Wgh8 VbZHfFR6FeiXoOSdcOYENE3izNQK9tWOsLdxhO6dpcR4FxUonMUGIU4pcECPmwPnQbOEMHDMhitn QGdK1s2zRd9zWEJJaT3nz7dROm4sM6ePwVGiVkXq4OI5gJNwhWVaCAzKg2JAxlQPzBmWD+bBchUr umqYwiCTgfFMJwS8zF5qqCsQnjZn7hq+wDb2MoE6aoEKltDKMGeJMp153MAkFhxrYNGOKWzrQyRQ lU94luh5yirkP77dSvGEjrLEHmD4p0+z7ZUXJH3osis4ef4ctVXlnD3Xyey5Szkf2o0+D+UzYeY7 3klP7wBDy/LEiNFPlP1cj2YrUrugYJmG/iaoSRqdbinwMqjvADYMDgnRTZ0M2T6I3AwlG0F/F9a1 wqwmKYIK2fKKVcCuq+CBffC2HkkPw4EBB7wMnLGgVsPNs2H3WDh9QboXoWByvx/OAODIapienM3B 1qOcOZNiRqODuxTy66H+OxjxWnxtf0RSgp4Guo9J1ZVtgTsMfBEiPxGXQk194Au1MTpOpbh5TnYz Jq2Z/YpH9ApElnIv+hAw3+jdCup2gL1MjECt5OVFYEsrLJgNfYPS/Wk4BAP9cLQLzg0BbBHd1wb6 laQhH18PC1fD+hep9uQMlaBoppkxJOmhma3s9e00ABbTSI05nTtMAHs+jYXybM8Q4xb2YgMLaSwk tTrAOvawo+EqqUQJI4kG2i4wCmIn+GB/H0/UdzBrx0uU0s0MNANqkDxDNE19ier4F1DKZcPWzVw7 8QraD+6l7kPNZPuzVCcqGLkXMkT4Iwlzul5G0uN3wqvXiJphmXiv1kjvXiV9ZuMVkDV4APFqyRxS FrQYZILmOVBZK/691v2QGxZn+Y434FELGmbJyerYAuok9JhoyqOzoX8ATnZLOwYvDORhw1lB05n/ boj8lZVhONkK1y5dAOwQ1ZhLic4B+DC0LRBvdfzrsPURwIWT5mOWlmUvtFEKG4umiHBbjsipH34C ch+EXk1pxiM5bHImYqAHgg6rV98A2UEYUaAjkp/pASPPw9A7oLLEJDYPw5YBJKGj7HnYmYQlCko8 2LoWZq5k5WE4k1qLQnEAuJtF1BiiazdE5yFt0zSam2higyE4gGZDiL7UTAMt5u9aVoLFNBr0IpnD ILBjIbziZ6D6qcXeaTi1iU/Ono9XsZ3W3W1cHk3R57mMtDyDBppug0TiHiqViwq77O5zyfT2Ur2w HPT/4H3lowxQwvM49FFN0Ch9GPgWbPmW4XRmgMo2jY3bYOVayBrOl/S1WAUv/kP6trXcC9wJK66H /Ufh6Bkh3FgMWtvhZ3mYvEBm2NECnJI0M+XB/TPg1EFY/HZo2y9A3coEv/VpedQCeF8IKuKQ6ZuE rRVV1aFLOd0TBHlh3bDpPEz8L9j0QwGxoQ+O58UEf+ENBJJhtUzEvqQ2VMfBM74k/aEADCf3GxnQ XoA1jDO+vMVLTYuIkBhHeh04rMFiDfn3CAi5HYFNGgx8rXl+JSzoYUI8yZRTcMXRFFGqeKQIGuIr NGMZAjpgCEjhsYwmbETcKoSTJQmiqF+hgW9wikwR4fnXchpRwGk8JmPh1oJbBsQgH4EHyoDoGjg0 lflRjzlzYWZE07prHT0qj7vvD4A4KubcBonk59gf9kif7iGRKCc8/efk3I+C+hV9//5vbGOEM0wx c56NWH0I1qr1HeFgIOuRSgvDKCBl/Fw4XtLn4VHgDpOx9QEhtAWzYf8J6EoLw4iVgv1b+FijIbwB 4DjsawdlrKeHEcuh++2SGaIsA/UArD8FSCb42x+CnsxYHG1RXhG7lOieNltjISP6Ohx7CNweIbTN gGOI7sX74NS1FFqL24pCWo+WbcWrZJSN6D8p9puAbfg+rkbEKnJg5oj0oSoFvJWQi8q5joTBCcHm OGJMrd0DtX9k2sXlLIqFqcu5hLDI4bGJdeyjma9Sg0WzuPcQz94r7OX9NNJjZppA9udSOB2NpBWm gO3sLYRoV9BY+EwazXgUThl4FaBjsjf+9PJLzjMQGWbSUA+J+GlSuW5ePrmO0ryG6LNoVrIv5jBn 1iwq4xWosMNQRx9KuZTN+yW50Fc4+ZVhdlFPX3YHxP1UmhFDgA/AFiMzlClxTGUk1pj9HPADse6z faZupKhNaCoFLcdkAzQwfRq07jMWYEqc4Qf2ws8cmDgPOAodW6HHwLfNGoT73wfRUtj4GjTOhp3t sqpagzoBS6A5B1clpzPiitfmEqJ7TnadlAyeTiS/ISlZu87XKbTIeSNs8IMVrN3u93hkVP/QUihk 3vv638JmwSvRZlf14/LzJvM4n05zMPNHMPYmgyQ5Aj0e5Gpg/97dMKmJ6WslatjIa5RhE8U16fMh ooVUo+ZCL+6IIbwwcrRqzZAUElwaVVNjhnfS/D0FvGo4on9ZCHfUQDIKbil4MdBloEvB2i11JZNX 7yMeK8fVmu7sJnbua8UNdaOUR1tEE7Y8rr++Ecty6BnoIdKnCUccRlBEFyTY35tn5/fKoGcvxBzT 4sk/rVKpwJYas+whQ3RVFHA4170MzQsgOS7YG5Tsa6obWraLM9lxxIc3MGBu3y05Zof2wV8bEfFU Bh07IWvcRjOb4aEJRq/UsG4jXDUPdu4CjsPSuyCXYULoryypNMkAo4nuGXyIFtFYuhEeUC5UwI8N jMaXIGR8NNle2B2HdRtEpDY3Q0t7ERECpX5DOSRlyCdCP0boIZNPdIG3ZnTp535YGoKS8zDwGmyO 7YKQQtvA+CbevVeq1AaBMbzBMC6lKCJcg2eD5QY9GksNsbWzlztoLEifSgJO52+JT4C+5npStggX ycb1p7PLfPbbwHfLhejuK4GvJYTzTZkg0sp5poNB8qRJEX/HGU4rB43H+Ug3fw4pKHO53f43wkCJ /T3sAZeBEJwd08/J6kkcLyuDD98F5d+EfDuEXUYT0BxgDbzxM0j1iE5XKKkqheb5kPwM8HvzXlE3 oRdfguZ5wgyOnIRknXC5gZysQHUFVLjwH08gRG76ThxohZkLgQnwcAjTQhH4qBD6/HmSCdPXB94f wYbl8VFE9wekcPExs7QjhugGCdBsPg2Fnlefh+OlkMrJqVq3QdJGbn4YXi2yEbUyDQQr4T9uhx/9 Xk6IqwJu190NFZ+Rtch/QxZPIbLQRuqcOxrgWrj8/57iEO0E1stsPolwsJh5N2aIxQf5saFgpR42 ulktsIpGPGCdEZ1X0TgKMtW//sFemmmkAuH7fsM3P5WzEjmiHwSeqgMnAV4SvCrD+f5gcjfefRb3 ry6nGSG/SnN4eAvRiiTrw44sV+y9EIJbnPuJRhWD/Xn+744WQv+ymP7S/5BBfxKkVbufregfj08E A37+e9BygFEoA82PF9HZuuB92STAge6bYOOnYO9hEY9NLZWsGAAAIABJREFUTQHh1f1JJvwlEF1Z Et050Q5Trgf+KBG6twPq43JPrQU/Wv9SFu6b8rQiovs9o0WqR9BjwPdk+eXynzKTtsDZAkSgbaEo qtqS7dCG8Iwzns64DCJqBfP0EIIrN8LNuc2kpBCEAP+CnIFpwN+kuukAbaxmLqfYxX5m83mzfBUE pJgxjy0Jix9UbBchuAiyf800ss0QVIv5+VbdxDCz38FeVhld0Cc8KQkULnkL8NRk0FFwSsEdCx+N wf/8Ucij30yl7fp20qVxzsUsDkRLIbpX1qYE8T1qWOL28nr7q+RzEfGkX56B+G+h4g54wBBMeB4U Crc3IRUVD5gVaDOwGpZIn2QCAfR5liAZzb+uoiBeLqbgt89CzxaZ4LSpUDoII4NQ+Se4/yNIrrgR 3VQgsqYEkBat/PSTEjYEASdsbYe/B0hTRURnerByxixpDuFyLyHn+FoEkfAjBLApjyOZDD7ccl4G cdQQHgBhsbBQhvAIiik6uyUdB1ug/C0N3h1+C1E5kAuAbbvhpiYSP4H0u6DqNExsD5BF7uIINSRQ uIQJcYEUY5iOTQFRrGCllhMQ3SJDZL4/Dt66hZ1/vcheLOBmo8dBUClfBtwOPDdV3FZuBJxayMfF DaSfkaN87F1wpgcOvApHb+2GsNGLIxoeV/CJPIT2g87D9o3ihug3RDbLgtoR+c6PM/heL0JzEH7r a6++6NXw9VeheaEUMBVmWMzLfagM/wgBz/5JIixH/iyHAQWzx4M1AuPK4EsRKFjzEfNsE5P2aePh vOgVPRn4vBTTU30EKWgYRXRpgnqsHKKpzDKTuI4A1QdEHPvXJwhUcX+bk3AsTiFtxud4F+Iyzu4U VH5anuunCLm3i5jJIEnC8xHadSl0zB37JziffQPhebYZ9xLeB8wwJJM2uB0VTC9gsoTNrcoRcXoV jX7+KATLPeryrdVLixGLOd6gWXKvBKwklEfAjgrh3Z6A3yTAKRHCu5iBjjBs+yPs+D/An4F3ARVp ITrPJIzGbPjZRaAC5m+QBEe9D0osoavLh6Vo5YGHgc+LuqI1hNNIZMIkc3IPUqsZhTfeKtrcWPSe olCV5LqwaRucPgNH/mL+noKmK2BiHYQcuEchrYuXmFWtRgi6BzmCHqzSsDZDIYWJfgSB+Hng+eeK YLUcs5nfRvrV7ydopDtktscnOL8XxC8oACTnX4X8ZrNVnyUwSnQwt1Q3VMVBPQPebcbhfLvcPoM0 JlwIVK2BBxF/0DngcTifLcaE+iVyOF7hf2nhe6T4Hi/yc+L8gjg2abIcBYO1kUI8LTfRSAK4nYYC x7rUck0hZZNSfLh31Mu//ITuXqB3CNIZuCMqN7t9D/AK3GWkkLKgthYeDRsC/7O5yd8ALwEqKUU0 Vp2sA7Wypq0rYasN3lWQawSnCQ5E4aqH4Vc/gy/+xCytBfkas/FJhOAA7pIfV5tX4Wok6IddbD4p sURnTYPyz8vfp02Tex44DC07IZsn6JW9iSDT2IG+XTLuVWGEu4wxexVBlJAQiie1FqIB7swgR+kk Ujy4FcFz9LMMzkIBJ+hIMP58BTARwquAEcgbqPu266DG1IC+GoJOJTrcuMtM2Ow28J6EPgXWHXLQ XkJoPE6QnVq4UgicVTuSbbHZLJhlJnY9gYCUU/sJsoVPAFQxjXXs5XojWotcqqOuFva+JfcrJk6f 20WRs+IB5VOgplziybe3w29ulayifBjS/XBaw14LNj27E5gnttsAohLFCRy6IFhgn0HOszoQvF+q IGTBrCGI7RQi+YBCYm8ZAa0OgZzYe82C1hXNoBHe8F3gqugFBebguLBxsziV9R6xQE+fgKpB4ayL roR7H0MYSxcB4k0SshsgfoMYFmuL3TulgEbxgtakDdHFNbzjLMLpThOYl9UIIf6FoOHaMMJBVhAU HfwD+KLhdBoeK4VFC2H/ZeIV3JeC8UnIl5txmFPWe0chCMIbSMHLD4u32jHbugtJc7jOPNM8x4+5 0EDgGPHrW1fxSbJYQBVx1hnUD0UT7zFO3uKIwxT+/y7f+FhKY8HDoxG12poBuhycOLhjgIgYFh6S IJPNwwMb2sAFa9FcPIfg3CgMkZkHlZqbbjf7ZplskxIkh3DmsJ9dISlOd55jtLLgK/x++eMSRhFZ odG3/56ZiafhfBe80Qra6GR72uHqBjh4WJ737JUEgCGVCE3UE0g2/4iGEEgODygpOrhxYJ3fQVAj rDCJWDr+jUEUSD9UtoJAj/O73jwA4eXm/RHx/aRSohDXGoSlgmdQQfYOmetF5KDeyCUE54ctQEwH G9mdNwiaz/unttdM7rXCt+eYBhP/TZzvF91Js5tBLnLB3M1FSHvoktd1NL7lKwY00ciLhlj9avk+ 4P29gMqgdAZFuqByfTwEtUqW4K6b59Jw7Vz0iBnUH4HftUsOnJ8t7tNBP6JutAL6A8AHYPgDMuiz oYA7trTB32cRtHWfbEbmmtm8nzddVytkj5MEe64kJhnzoxdXyRjnzIXKyfL3K2fCuf1Fe+AhPpF/ JUip8A3MUmAmDAsui8St4nFY9wcz8yaKEJvNzR40v69AFK79iIHRgQDJbDR/X4gcye/D8f+EVQo2 R8Rf0OFJPaNr7tlr6N0fX7V8Lbh8lqyRU/oEgXVWLBL8c6OKJu/DBErzjMfYhpSdJWhlJf9u7tRD FpcsigQ30Ui+8I3g8g39GYi/20+H8jlj3LySiN0fAx67cJSMB1XTk3g5hVea5mMKeNTlX79Yyz15 mByDG8rg9XPQaUM/7WDthAPzQO2C5tkBDi8E7tEdZpkBhu8UKi97XJbodwoe9uBJszZ3gkimSsg3 mLVOXbKG00XXewMkJ2+NvK8RB7EdCmA7vB/JmK6+Vyrlxvm9biNIpMq/fHglf38s2Y93xmDtRIOX ss53Fr6bgHNIAwv5whfNTUx2LksY3brmRvO70eUOfUugHXqy0NMLQ7bcx/0UhdI4tPiffI7u9xwq 4EX6hG8RJPgpBA+32ArzRes4ZAd80BqBwl/GSv6D1eJTxeU/sYkSwsamigR1JHBwyXORb5Gmi6P0 mpe/LUlEa7ER/tEA3EIjt9DIKhoJIQQp7toMDklGnISEQ0dkune+8CJ8QfNz3cX53U/RMwINJbB8 KtSd3E3ybQo8g9arNWzfFXidFNKIBwK/rH8NAgN3A3fDh4An/TCkgqeKD+ZvTAep7Qjl7kCi9ea6 GkitMaa6iUL3DRRJ4ibQX4L0ZyX2qoGfVplZl1AoiC0MOISE+8eY3+th7Z1AlTEkWj6G8GgHftKF nI4kQng+JtOPzV7OgPDlyNHajARNTaSeV4H3wqEmWe1nvwcTvwPnFZRWgQoZp1ZcmCTvD/zOP4PA z+MP3DLP8DNTb5AJWBZ4G4PFLVjXBjGpdEmBiKuJMJbXKAVWsIpeI4sSBva1mHxLsQv/TpNmGy0F zreSO0bp+Jde9QiSHICDw+eweWgKONMVdeNB5zXeOIUKSRYKlibVk+LM+CS2SoiNr6FzCHam4cIQ OI+C+2kCyCzAjoO7bReo2YEdUGL29jqzbe4ZQ7D+l2xYnQn+jQLTnedN1/PmHjoD5y7Atp1yCDwP rH0wOACdZ6BxFlg98JljIoZLVxMQYMSsiC99HIRexHSzee+4NXR0gGkyweocgYf5ewjfXYxo90vA LkM4ii9SjyIoRa58b1seyqeD+qY858JG0P9H0srLLKFjHRWHZ1ej0Pov8MFSDBf0WfIehHpmIPqJ adWkNZK2bQiuPAHeMKiZUDMFsuHCPYaAKJO5kRkMGv9VCBhikAcoYSkhNJ7JQOlh0PxXSZzfclxK HYAj7GEcpXik0SSoJsi500AfR+lhEEUpeSxuwCVna0Jxjz6t6B8PpcpFlSkpTY06fL6ynI8qzUVr ENQgtjWIm4sxMSr2+fQt0L8d3MguGFMPB3ahOzolm2MG4rl6P2L9LEBUpyyShrP/r7DvBExISn7c 0RhMK0XEYcNbExxmqc8AzgAcOgp9/YF06j8miAchC6ZOgQ//EMZ8wBRs+x7/seYZIflOzQQ43ABN VUjCev2b3FNF1/1FvbQeJMDl9P0aECgX64UAtiGEMfI1oUm1RsaRVBDzVfi4sPkx75eoya8ATN66 bUnqdIHgeuTz9BE4pS3EN+Sf2mqTPVwtztMBf4y+sZPhLGmeoJOLeMSJkwceASDLN3mR7CU8TANf Jwus5BWaC5rlVlpooYWtPI0mzaN8ka08xVaeZhh4jRb+zkvkcBkBvpmCAWw8DZmuNFa5jbbkzH0C 4MvwqXSadHeanlSa3nSaqvIuqiu6+NS4Tg7TzbXAtO2zqY5A5TWz4ZrZMsgfmcE+gE/1Yv1vRmyG 37aLYdJTZKm+VMTXVxW93upyHBhZIYSjjGGhmgKvg3efIIrxLQLduw7hakocwzTCv5lIiNMCzjog jeLJxzQtLcgRycNPLiLGRBXwX2YEXyQwqQ5B/plL+nmshG3dEntNheHAbHHBDygIR4A4kvhnwuQZ Dx66A4NNhVDoXPk1VA3O7qJ7+6D1fg6IRhqD+5azAtuVCh9biRuhH4TgjEUbV1BSRX0n9LGRidiU oGhH04jiGprZTwvLWUUPPUiXDNnPe4A6kgX7uNjrBEHQKUWK7bQUNNEVrOS7ZLm7EcrHxhk3z0aX KmqiDna5TX7YwfZsMr1plBU4fnYpQOnCkaqsigOCxTvgwOFuSIUgNQjdPwD+gyC0GMXEBp+Qf/+u DR79OFx2SejrJpPUtQoRpxFGX68DI53QVg+dv5e0J5CWWMf+DDdcLaWWX/5PJOJRglC9hRBeBJgC qhaesmVvbgsKuEOBgPA50UqzjB7SAcTHtPhmMKjwjQQukpVwxCQIOOth/93ifu9X5ru1Zr6G4Dry 8IfuIoJ72QzW9DBw5iKes4T5eanR4IG1fLQrqjQkz8v7n1H4EP2QMG7GHi5QBWgO4hBDEUfRBaSp Ygo30gFsZhvzaWY325mLaKkLaKaGpAH1CgjPz0kQB1Oy8DvAi6zjy9xEd0ma9JgseRXn4Ja1rLh5 NfUehMIhzuFgjU3Qk0mDJe6UpqKp7hmGvt4sWmVx1QzU10zt+KNwdhD+ClR8H/o/Cfox/4uOiNxh c5PPDMLvFVQp03/PrGeef9a425wuCxKt0HVEfveMiLWahJGEQsBvEUr3pWCF2fPJQI0YMlbFm24f Gv3PYuLrRvinE/x5Faavqk9wC2HbBUjEIbHL0IcpXVGu6HH+YzRwZAC2DMKBL8A1XNLnLSSv+r/A ilUwJgwDdZBxYdcgdLmQ9oCtUB+C994MLWsFYWfAk6penxInrYJQP3TvhKiSjJfrF8CrYViyGqoU uTIl47NMUC+E4ZSrOWgjEnx+M1iwMwRYKQM5RJCnmgN64O4X4PEcMLiar5bA/RZQC8ujUFEZJ12W pc/JcvnKVax/7EVu/lAzlWVxQpYtI66S+3UqUH3yu9IwpkSsZgwTd78NvUqeWQZ89BF4+u+g90Pp Z2GwGhjbBdFl8OpG+PBcaI4ZD4aSRGMUoodPexMxFC6FSVmPSVllPm9UZAsWLQJ1FKqr4e9l8E6F EJ5C+mY9TgGl1Gfh/pUHwj7Raf9/f0Py70E4TxQRqw8Esr9AeEthm+86V8B1sHkMqDKB8VQKqJfV 00hG49ljgQfcAqKbBc4rEYFSC/bYcOfNArbtulCpYGwUriwRHeNb6+DaEnlcvW166CqosGGsDa+u BGxoeEk+M8GcqVnNIvpfRQp5LmWehTUo+vd7bw785P/sigJj4PG7zSZ5Se4fTMEe4bo/rIRP6xBe DFr3bOPQyWa+89mbSWrNhg0vMmGZ4CFPVFBeGeejfVkejGsq43F6+7KcBWqz/vAO8+OSGRLtQmRP Xy/c+S7oHFzDkR44/O1v4n0LSOyDlctkMrYNqTpIdgM1cNNhyPsuk9uK1KQ1RRNbA6E6wRq2TX2o 54L1CVB/AK8R7G54JwR8633yo+9usB+H2HvAx9b31/DtwNqfEBoVHeBdjHa67kRSX74Ea39URHAg YtHPUqiE1/KgxgpnwoFS30IyPh3HhWdLgC+LBJ8KNF0Hr+yEeMhE0upAZwUyShsrNWTJz0goiODc uFpwhP3o24pVMrO3IT0nhsz7CwzOcI2BB/uGChbBdzX4Uy9+v5go9SW/q6L3wjr4vQ9QKVmSKzUM KTgDVg7i5Unm1C9i8WRBC+5OwKp/WU2nIeoaBdqCD7e10G50uhuWrUT1ZgW7xjziwz3B0EqKfHhj omuwo1DKN2mrTAlEre3JwY1bkD4kUSHtE5x/l2eQHDsYTXTmsiZD9KBAsXouVDwrA7WsAGqsEGa7 F/p/DOqXFNQbRQE5FoC1vwEgJPHPoutz6+DhG83NQshRKDNf8j90F2w7JLHabAgpgSsFSszJqDcL EhKwO10Jjg18WfzP0wk2/D3zCjg4LDgkIi+ipILcMhEGzzO+plWiSziOuFg0sGIlZDNQXQWt6wL8 6YXNAnQ91YBZ1xE4Vf1sLp+I/FUpJjb/8kstk8k3cz1d9NPv6Of7tm0NM+CRE4pPd0IymcSuhkKn 1bB8VoVA3SJvffLW1cEt/6JZ3xrgI1cvaEYf211IkQfIZaFIC+TKRy7SczHDiX4NAy6MqZLUF/+m Ldvh/UWTDDcjhlqcN13+4Ru6CY5+DWbPEellm5SZkSsQ34pGEh8tUPcKs1AKng7hg+PjAU/8Bj4o XDGE+ykKkQRAUmp8n8sr5vU5xKjwR++A6gJegMQtoKKgxkOvYT0h312BFO0Me1B5LXwA2Xxf/foe YiKOAdJdME7J5nqOcDaNyTGzIJ0S8Grtiij78M3CPXuzMLZa2qv7RtrcBVBdCR/Pwy+VMTGVseaL Fl1jSiN1sNAY8dudCt7b3iJE7CdC+urIW4leP/ofRog7q3G1hZ00e2D0t93AjyNw/3uD/fVfGlDv Uax8z80ypL/JrTPqBbRu4gAwd0ETL2/fPcrfmyyFWluR8qA3Z0FZPax/ElaskM+sXA5hC/IbDMH5 9W//hPB6kDyPRd8B9YJUAqIkNDY8gnDJ5yhwPGs2lM6HwVbQcYmQPIwwlCLTQJp/Fmpz/PJnTVH6 gfmmTcD5opB4AUJfBTUZNk+UvysFoTGG/TrgeNKnba2C6CewjM+QBxGC+8L/o+zN4+Sqyvz/97m3 lq7qpbqrOt3ZN5JAkk5n70BYkkA2EKLIjCuLzqiMooIz6qjoGPddEGRGRr6C32EEmRlRUMAkICRA ku7s3UmALGTrTnqp7q5ear11z++P59y61VF/3+/39Ou+utZbZ3nOc5718xTEGqOBeBH2tRnZwUz/ 7RhvmBKs4KIr3M8OQL4IH7Ylk3frFvlN24KWy4XDfdSM4yOuCR22IRgwkF8WuBZ82OiiHmJlOcG1 tZag7XCAna0S6eyUUcbflxGa91mvGUWbBsXDFWCbMMWiia/UALeM9YJ6j99CUDevXC//39ok14Z/ vYENNzRz3/XNxBNw7OGy3wIC8XomToB5MeBLc0Ra4lYZX2rIIHWmBOGGOnP9FaE1CezZXFpuLAWh sAGhKdc/34NUJmuGSAswDiIbhcGA8Ku++2Xen/S6+4jWBP8N9nh+1YJ07IGrDGWAxKktxt8ZRvo8 XpQBbU/LETs0zgjfASG6exLAFpjxmHhd5oI1HqKDMOIgxeW+g5zM6Tdg/DgYGRBEzK1bYf3Gi4R+ BV2OP9GWDfXGMpZKQetu2HiDPM8W4KMIp6swm6lwkdZQOl7xOZTWgjHXZo62DRuFi8JF3E6PuVXp sXeFkGw5o35+uE9RMUMWMJzQYla0oOEW8Q/MKLvFUf781uXtUuLwe3jGBOykzGf7+8HlJKk8nClc wpufAp7ug9F+Gag23Pm2Wsi/CCHPfeiFshtu9zvE0J9Gkr8GMEkhW+QeVRH4lELooh0Jf/E4py1l fNx68Rc/AKj7/RPmrjiWuCBd/py9eqtxtXl8AD/wG6DXhCm5wjmGzEI4Sghv21752A0y0fRB/Y/h SgcWV8GkKuBLZmDps+KbdTXE4gI8uHadLH7RELZSEv7ksYWALXXCjqfk9V5g+gqzyEAkCP8RNAQH XEj6mMIlGe4iIU6Z17zFubi1tfr38PrkNc9i7BFdUfuyJJr2WmGurgXFVNlXTTT4KXwu5/lkpBCI XOUdehNQN8Kmdwrh1iq5ADraZnLiYCsDB59gxZPA81tkTfwBlnWyfBOWDdgLCL8GYQi1mIThoFgb bBsRyl82b6yjknp/EpQlA3j0op8xTURrV5udWz7TEcSY5nXqFcT38iWgH/JeVKF303pRAu6xBUgG LVSef0w2Upvx0gyAzsGlLlxlGT9HsihI1x8pwtluuPJawZZwta84oKFguFwgINAJYMKytgqXa90t st8bZfIYCMG1tZaZhrT/WCkZRsGBtGPeLtNyi0VYt95/XppAb84QT31ewye0EJur/egqgAbYozS5 TuAUWKhSGoOrgWf+bNnNcSv1w32F2vtEP2+Y1268CdQmY0PQ3l54HxuvX8c4t0+ofGcb3NoGbW3m RkEIbcQPbf8LbQO+zdfLvalZI4T3CU/JrAd2ohiiAk2cCVJRsmg0V8+6UH4CPGnGTzwOa9bAuqdF 2Fz3N2W/vBa8oo27POvyDyF0nRxpuiAcDwXay52PjTUtmJjK8A0D8IMMr34NUv2SjbjQOUdlMABf MXFwX85Cf1EmK1onOGuWLXLWP6dEz9n3vBCbdwx7A9uKEN7p3b7W2Z+EA7tFA/5cAVJ5Ia6iluMv 50AqC5/Iwd1ZuDMLDQkxt4C5vyUy228wArEh2oB5bAGfNrP6KXxvSV6GJPGNmse+rwkWgE6zz4ek G3kX8r+F5esFNdYjOu86juIY8KH1f5nwbgKmbIJHnhT6t4BIIMGhHVtpUNpsog/AAx+A22b7Xokx ZN7HGLPJKvO2R3hBBJslcAVChUFwXwcsA0LSSP96CDw0UWQnj23nkNPnU+YqFLFKGt3gEPR/CwYz QkwlFXMA0VyBy01KFl+VhYjXgXIhYOCKPmnOl1QK1l4HxQ9IuaM18nbuuTpgH0x5le4LMHQBAnlY agdo/IJx1N8OJAuQzMtqOMCwI16Hf6sWpWF5C0wMwKSAHF8NwE0rRHhtNF1s2y19qaqBdBHmLQXi ksVU1ELMowVxaGLBD41H5D5b0iFtLQlDHvTr+rVwC1LQbjBpAqa1icbSJTwbHjTf8XQyEDH5fuAh KI4XjJlMl7yVHJKcIxd49a6xVhjvscf17t1yMcfzmw38wxao+zG8Y60o+bZ6H5UBRUwpuPPJi75R sh/hZfX+ma3uXWUfDSLoCx+FUvlpKwQoAijq6GHCFgi5XYSLE8SaUmLRrmAkPyjPhUx5v9zcNZ3Q Gp5RSPRIFaI7f9r04OumF0kJ+uszpo2+IbhfwddN1KhWkhPiNS8qYqILjibdD+febsNCcWTrCwQK MP4zYaiolWimc3k4kxNiy7uC7X8hKdypps54ALQI+hs2iixY0LBwmeyXa9bCrT1wug9WmsDP+y3p o6tEDlVKTAhBJWz3gYDII1mkBm5GS5UWR/siiGueF8x/S/vO9p8psTEqjJ0Rn1NoIKfJhoTw0ijy XYa4UjJdLpB/5s/TIT3NtpwLgkaTHEN+U4FrK2DoZgjeLAJSRL2XRhuuamkh/tsUPJMqEzOUrGOu lb+qtrzT/HiIUmKZOAxG8NxUBRQFFBm6CWlFrRajuC+OGPm2ICeTNSa4SZWHqtZQnmsg7dP4pYYf kDA7r//TyjCPLBCQBUQEBJE7P4Go3nno3/Yq57dGGPhRjnlXXEdjfz9aa+qiYUgVpcTyDwvQPiRe jgyyGivWQtoV4+dtBbitCP0OpByxMYTqYMUa6DE5/lW1kLMhEoeskb3yGu4G7laQU6LVOpYA5JXZ k/iDmQpPs0Ujbj3Dh+4CU3za13y19tMGPqWFY7rmfwByb0LhJJCGdFbhHhHy0SnBy3PRFJ6F4h98 4rvEXOoiiVzIxM/KjSOioidKWT+Sa0nLe7m0YQYblSnifIMF1MH6Olg/G8JrKTGev9Teba4xraXU ixBCk+o/LJQWE26tg9RU8+azDDLHKhmHYmUgNwSAe+DoRPNNX58S285X5bN5BNVx9EUz6cZn434S 2Czc7buI+2rA9GzlVeY3BFLqAM/jOJrKmjpmFIrCPX4VEoMyGv63Bd/oEiIb1ZCz4C4HPu6tdBHu dmHEFe6UKsLpAfjyLmA3fG4r3NsvindeiYzx+bLF+ywXEZs5E75pPmMMswykYNU6+cm2Vvi4WexP 4DOJ8hPrE+bxx4ET5lKKX00AXFGmHvkmDFeAPmIIzDAhR2uyRc3tqsySU/oZ6Z9G8XfrxxKed5rV Ajuy7XRsgqUVMO4OsG6Eyk01tNxUY6KhT/pRJusf4i+3zX/lda89DFyHhcZCYSvIV4+nogiRbyPR Ll8AKmuF86OhFxS/1VoMyk+IOwmjz8eisPVuePBGJFjTCzNqQ8wry4E6eMsEY/3WASsGo4bD1ZhZ spDQ9BpkBk8Bzz0EfYuQpEBFYL2iOCvC/JCF41ocyWiGf24k8PdoeCoFM/dDQ0giPxL18PWy0PZ7 zWq7wEASDu0R7rJLST8/m5DK3Z626tHcN4GvGNOH5Ungyr/XPydhUytcu05KL4Vj8IpRXBa3wDcT EsVfbpHwmkYqJ95vxqwV5C3Iwd+FIW8LEoBVqZmsYHpWM2OesYsDbxgeELAUlgL1jrG3notHiJpD KAboY5A5DJmp3pJvF6zD8AKq8fWZLLLdfWjq/0PL8+fxdqZVYUIXc79i6s+WUR1PkOxMUN0rJTYG fgqpFbfAu98h2NWxWnh5GxYpjPr+fvHNtb0l/1MZuP4hxNBmIcnV91Gy5+X2I+xDg64x2uNtXqlk 2XxFJL7fuH4EdfwMXHEFchgMksIh77gE/nWEvfdWakCSAAAgAElEQVQ7BAMKZWv4AIADQ4Mwfa+U V9qVg71tYiv7lNkEn0MAm10NA31wyGCtaS3TfJsrctmQlqTurOmHq+BLRr7zdKaCgk4FbRZst8Sm 84YFv94m4y4i+R7nFJxRcJeS512IhnbB/O9B7IZfNK9FDGGPAmEYMZ6LgoZERpHVkKlQvN0JxXPy M5caOa+gNY7WFH6vcX6vmYVmjswMLnAAhQu8jcKlp4QslUMkBy/I1FNE+/j/x2sZ0zzvy19o3rlX CxD+ABZzsFSCRhdqg0bUvQ3IuKLVYDrhlMfTeQKfnLXmxRA8B9yQwOfFhqsUXRnOnGo47ELskxIV VUAW1gPlNR8D4FtH4F/iMD4M78rBzv1w2TUMvwQKlyyjnPxxnuL7gfQAXKsgloD5S0Dvk7SIXXmw 22QRP7kcVK1ok7E4/GwPLDXmDKXgtmXyuuvCQ8i0fwo/8sE2XE9p+KHYeCJYXL1EESrC0Kji4DlY XrWB0a/Y7CTJLNZzvG4rS/oVlbWKwRi0z0YMoSDHarmNyjXEllSlo/qpD8HNGiJ5cIMiq2W1hkGR UDgH7mSYnTLdM5AwWoPze7CURr3D41aKA/SxL9/GiGHk42hGA0tDCwibJUghuFzvBlMz+//U8qD+ CovDz4IeBww+asDV39zM4sBm7CJMtuCYZywfdmQ+vqBhLSh+aSS8WgwEwIdkpMtboN54H274KOKv 2k3J7D5iCLNqGRy8WzD5vPZ1/K0lmYDw3SOUkIVa/ii0O38VHO2C113TARcPX4lZQNMyQXV6zIIZ 2+DSJfDCPiAMK225x+oN8M3nGRN3tcRsngXLpCzTg95mMvvzU8jq2IYV/AjT4QZW0kcDFs4iGBlO cuTUbqyi4ho+gLscgm3Sy+ASmcuaGFg7RM95imnczmnZlu8CHRrAscB5Uu7/axLcRJIgitBt4Eah MQITFHypSgt8zOc1z9X53EBPlp5t1MDtGn4H37V8BnQa6L8xyZPZVtikWPaMuKEvDd1KzMxoL2Ph jmoRe8Rfb0XEtYWZt+X4ObGbibOZSuRoTQDHHwWGNgsbjcIVQ5uJjMCbI9B58Gbqrr6Wgao8fLsW eBHF01ozZHqiga1/Z37HwEspgCE5ZSkg+CZmkdJA9JcSdldEvCJD+BKtF8892gUFV2xZXwD+9KLc YuV10NcLXaPwYh3gEACcadv9qOO5S2BcPfxCiZ1suB+O7ZPVshVcvU7cMt/qQUCvX5JxNBmC8+gp gCmNruCTJjjBM2coBT+ECSiWYFG5VJj10EiSo6daCehmrsw38RRiChxqBqsIiQpIpSWghd1+MBgx sM0RqjQUMwO4QBpNDkUWOXoSQdABmBQUpnJvVPOULWkeAaWxwv6yu5PhJq35pgKrVplUIs2FZJJD bW30Aud+KB+eCrSEW6glwSMk+BCSyfD/1jyi87SkZX/5Yz8x/70sw1q44oKIEEP9cPqQMfa9byN8 MQgbXyRQOgaS+Bgr5U1TZkrRSJ4rwPv8dHcbcURoRPAM4x+tTpcJqrThXi0V+a64TojUsmFSI5CG TaPwTABnkwb3GlnBZyxYbIt34RYF/6MENcAFYvPgj0dglW20xYCfBe+1BxFhvtwEdY+R9ZThlN4R +0HFov+0qFrmf37SmwnCyz5Ax+kOorPglp0QuQIqXQidB3VYYMNm1TVhVUNg2GR25oCsv/dC1OEy QBhFGOi5GmoKAqrj2bJzeSnT6UQ1RQV5W2Fl5SjtCAHnYDMKdzIMGDbVnUxy6K02etGMQxH/rCxD 809bqCLBI2juoJtOUqxgjiTrXdwK7RBccNGL+/nLwpxYHGbSTBFxgg0BuhdCcbOHNagg1BswABaI XBC94JC+PwAvahSPaV0S4Wwku/C6x8VIqhBePThoZKRWTM7g2HYI2LIfrMXSCxcYOQv3FeBOJdvZ caU4XBYk6VrDAwq+5Ahw2+khCFfLdzNDJq3WLNstNfDmDnmaUjBniUjZDXXwRI0gTjpK7pkxkupA P/zCcDoPNUvh+1XvN0ftZ80bPYqNJy2q8qLdD7cliTBLkNauEkSMIKDOC5Qcb4uYONOAX3tG+xU0 YZkF8bLHvLjSUQZQCKGlgc//LXyjCnQUigGYmZM8lmIQ7LzmNgWfj5hlUBoVkvwjDXT3J3mqq5UE mgYUVq0mCcxf3kIsUc9vkkn4UAwY4lri5IDXvNxkgLyBlAxdTHAecflGGgk1MS1/iBmhZpELHwf6 YXqP8J9CFmqmQc2nReF9G3iLm2G+Jr7qOvpnReClbVglHDvPArEGcdj2J0F/UBQG5x+g9c6/THAg wavrFwtpDwP2ebjPQIo9nIbUKGRzEghQ1CIAPQCQhG8Pwc9tqAz6BtiXvBubgf8PxpEOVGvYtg/e 2gtPFOEeB75uLLSWC1VB+NEWH3MZ5FiNKcm5iJnn3r1/CAz2gdPHwZo+Tkf66G1LcoTdPMsvxU72 KoyeA9UnBRW1Ibh/aISTNFGJD7j4Fh0cp6OkT5lgH3KATR2NCBHNRMN/wVeOgs7DTBd0CJy0OEJu s4AfKL6fEy6YzSt6RxSZYUgOK54qKviVInnWIgOcHVTMnL2CYF09v3ExSUQB+G2cl34LZ0vZcccg /5/Sixv/EsFBabO/56+orl4rygBPmTtbCiq0L1nFNhl96jDUaEuihzQIEucvzYzZQP9Ppahu6nY/ 1VQhzvS/ZkMEifl8BcgfATshwZj/MgQfcIXL5YGJIVAROGvDM/3+AO8B7Bp4/BkxCl92NewqEw6v V+JD7dgunFcDR1bD6mFxXy2dYtRyJQGGr7wAOxxEDomLLXtwwNS7QkKifmJ++zMWHDbRFwWg1yIy BBWnIcZCltNEtgUah8TDZWuJEVDHxTR6F+BUwoHRDl+mw8Mi0KxkQYm7yWgGSlCEtyAxBPFK6NwE +TrjoQvCIRsesDSfNsb7FHLYZIGh/iR/2t9KRsNkBf0Fud/l91wPWqOBl4tFo7cFmFR06HxpqyiH 7281Z34Lf2486cOHWNOIu2vR2I/kDzEr1EwcaP0lLLMlBaMaIAvVU6CqByq/JXd7HSjMvZnZ16zl 2LwIOEVj/7gDePFD8Ju/ERp97rmxZnD3YoJr589aHLjmLWio98Ic4Bs1QhTefYbTcL5L8ibKBS0N pC3orhCue3Q7XG6syxvMbisi0Y2eO+W9iOJS4cJbpu6BssU4fOVaeEcAiMGXDTEq4Gv9Et5yeA+s 3QO0QUer34cAMEGTmaoZmCXyUWoFVFfAa2924ByVIVTZEJwpjr6qRpPnjWDWgR9xGEKxhw4O0sEA cj8P4cNCDrGZQN0oXPYERDrljf1a9umdRUXWVQwgUsEoMJBM0trWSn0BJjsw/bp1LNm4jpYbryfT mmS4rR91AlbZNowE4Knn6QwGJbi1PgHbrjd4SBeDXXtEdfE6Hx37fqiZ43mTDG9D8gKcjEM2JRA1 mT4YHZS+NgAr/h4Wr3yaQcuFux0YSqHQHxLDVn4EQv8DX/knKcnU8J2xisUtF/euHR8kGTjcIwu3 XcNvtkiIlGWL1no8BX0OPGu421WNoDPQZAv7eDAGS18yClMWavPC7TLD0KBkVf+ogTi8cwjCNfIe xuhaXQc1FkyvEi7mcTRXS11vgG++6Pd1oxoLOqUMR91iXvjscjjQBn2K1RM/iBqAYzs7OEcT7wJm XirDGumHehu29wgy+4OIS7fdwIh52aABJGN/PMoQ5jGWUu8BaJXaQuDZZth6FeTDMDDQh2NBypJ9 /5KCDXVxdLFIVSBARkFWiXHO1rDNOGiuDMKI1hwZ6KdQAmZScHy3dKilxf/R27wHAigkzeuVCewg zhhiyB+CUDOXPw7dFyA+DIU0VMc2U5naTE0vvLEP5q6Ak6MSs3Hm137JNJ/o+GXZ8L+F76n/v2nH 4Khx+H/5BbH+X79ehPnKGqk3dZ+NRK1cLYOK7BTHYEjBS8vxs2pcYBiudoQrnTlgjEoKCZm3gP0w X5kiaMDRdWLLmByA7wbFb6qUuK60hu9VIrXqyxbAU8KLCpqWw31tlDS2b1zv+1Gz9cz6BqTooJe9 wB18EIheKs6SuAN1Sfg2HUTZS5o7WEMHy60m2l2vhIAs4nn2soRlKA5yJ9ejEFBujeLassX+HjBY B1vrW8lFhEN2AhxaB/8YYLECrR1qXciHbQb7+zmiEQjme2Kwa6svFnm1B+YhiP+3Mtb+D2KnDK2D 9amyjD/kQ/kt5ihWEhxQ/v7jwAVYPgJtEVjjwrjcZqq+tpl9TSLeT14Jg/9uDNkNLvRYWBKk2YJ/ fnqW3f+XpmGuoV1X+0edNlwqaMPdFf7HlyBKhePCnKX4CSIaPm7BHZWS7xqLw7RFpqivtyiuTCD4 djaAx/sF6OOzKZO6aKimrhZuenlsdz2CQ5VVldoo1zcuysuIwPFvQS9NBFnK3wFqMuRGIREDVQ25 KZKakmYpV9PB4vomlGEMy8oQzBezVCJKaMalyAD91FJLLTG+z25EnmrFopVzA61cdgxmH4KJh4DL 18FnAuA6FByHAwV42YXXXcURF0lQ+jDwp62iqHl4f2EZA28gaPXeNA7iL/M/mbkYQ3Blc5Rvg/xu 2PIWY7DmFRD0cwmrgaHMZuw7xQ1Wo2HvbjjsZUn2yJqUpfXkEa+DZ2D7v21vAjEYfV5QgZYao3Kf 6ZUyhBcLwZoKMUKfNhxtlyO25n9GtjdGQ40EoDYET+fg6jhMXwS1++FkNdxsyU82rYZfK8mCW4Ts ut+48HcVEMpDdXBMOA032fCs6xNc03L44R7B90gk4OvllKZlw3gvWdLHwj7NwTBMPw9VF0C/JfXC rp/RRAg5Hl1gb59fHzYxA3gbNrCgVIsMYIC3sLBKiFHrWM9+YJtZeQWsYx0gSsSH/z3AKRyOAL// pHeXgJiI8sALW/0NpGQIjJi+m5RkND6U9FR8GOJb1sOjg1R8WOTREBAlRpZBerVmengdQSBPCpsk URISw1qECVow87amIFQh+mOmCjhsqGghFG18tM8fgEj52TbIHMSH8vTOls1/gciA4i4ovG6eBGHo Bf89j9t5l+eBUgpqw3BZjFICD01ANXxPw9+7Jm0QMcnHK2RSdyBh6xPXwDtNYnfTavi1Sad7MiU5 FO+rkZS7bBHOZyUI4HsmABSguQVussQBfwEj922A5zcyhuOV0969+Ek/fTI1e5fD4TpIdwqovQOc z8PSSU2lvJyi+cr36CD5NqyZ2UTSkuhtD4PqFHPQpc2tSTFY+ul1rOMfWUfK/MUJUMQRwRy466fA URsedMQM0dbqe/ZzGMRNxH7qYU576+CJbQ0r5LgtgpXUVLoQ/4UovNVoqrDpBaaGWziV28qx3FZO 51o5mWvlcP5xpiIqRgVQb+5tAValxH+kEJofPWhMo64QHCOHscje5nOEzH4km//ei6gsU/Z4RLSi 4ErgLKS2i13vgYI41ve2GggD4DsJiUOrqRXZbfZaKU091UaC7DQloaPG9Ym0iHA7MrJMrw4Y26GW vj7lJd0B1MCTL/latgYeLUJ3HpgP/6LhWQ3pBMy+Da69Aw7cAV9upOQP8IZbcngqA6Fb78MtK0r1 +d5YLr7M960SpksnVEZh0aSmUjqg6Pd7+QYdJE+C0yg4xd3ANvNumlm4uLhG0bCxuZ7rsQmQIsUs I3rLewHCZrYSBLjrxX5gqxyb4EfKYDpwxDw+LH0ek6mmgfviwK3wxEaqB1OM7mnl/J5Wuu7aTRg4 ShLWC2O8LNzC3HAL88MtrAm3sDrUwu/NMfucqYnyPi0EWJuA9q8KiMMJNjMPmL8PYouAvsNmPPff oUtWeoA7H/VLgpaaV+jAvuj1HiAJPbv9KIvtwJLloMZBpYJUUrzi2gy+e1AmKBWCZ3JmSivgHkuq JgcDohZW2PDobiAHiTzMvQZGhwyykmVi5WqAVySnttmEpGvXeLeHgMnwDRu6GnxVUlFCsgWM8x/f llHODe5FQu4t5Chqb5f3r1ogUvLDMJ4O6uphWbiJRBT607Cvs4MYAkrVbG45CVg+vonGAGw9925u ooVWbijlu66luQT7CGPl/B2lmh0xg23s4R5pvuHxxzuAakWFq4koGNBK3IKfxk+sCSDroTR2fT3F zS4Nd/XT07cb2wK3FoJKMfehFmpIsAMpzuU1jZh4vN9+/D8TbOqHugIU+0FVghWE/X+AupdlyjuB /BegO3WUoZNtYLvY3PmxzRzrEn22SsGed8rZ+xqiNp0uwiWmDExZC9LHXBTRQobUF87LFrSVxJeF J0k2eBApQGtZwsWyiAkjFhPNcrwt5osrLHhgAA5kYGYG3tgLfV0w1YIGC+ZcLQ7H/VrirRMK8jXi Erv0lCxrZR38LgjTh2B2ztRWicKlE6XDDgK/uQIB2vEADLwqMiNIbvla/JyG6xBmq5CNGGuEnh6Y 1ijH1nIYaWmg8lgPUyY0EO2AqvFQF2ng7eGeEmRLnq8yzMsMj/yaWOUpmhMLaUhFOcHPaSHEIk6R oqUU8wp+iZgqYAYJTpFgG28zHYc8UcPYFVcjZ8b2g0AcInVemXeFs0zMKRIraMY1moH9rVTW1NGw MkNMaVJvdhKMgY7A/OUriC1KYCNinwUMkyRHhjBRGvGwHhSLmiMUW8UtqMPw+DBcegFq58Pwy5Kb MwT0LTzKSPseuH4NxKdh87HbN1NTC+e6YPhRgYFoR9jy9oOwfoIEDZ+Rq2ovNB7sY8IhUIeg+mCU SHUdA13nRZFIa3i7C+rjEIvI4vX1wWs7oH66+HRCYcjkBHW9YgAKOTiwD+iCI50C1NaAJM1cuQ4q A/CHUcAVGPOZlhRmW1wJjTPleqYCSAmxXQLMUTApBBVxIX4PgmEXoni0CNFInBJ+tMRavPNM+l5p CE8bop1siC5vPlcDqYFuCm2NzARUP0QXQrz4KGeHH6fAn8ypp3gVqBzpJBaNs7cqww3OQgacJBfI Mo2rS9YNj/A8y5lClmABDdgkqCHCKBEscykyvAJwHNa1wZkWkUIsVQbl7SCux0Vp6Ook393JhMkT qbAh1dVJoRacHEyfOYmqc1Eic0qJhkwmQ9+WVloTcZZVRI1xWzNElMo3IV2AJzWQhlk5cPPQHoTc jVC5oZue3Tvg1TWwNQmL9mARUTB1HFzzKEQ2izbntaKGB/YLIT4DXAkjO+DsK1BwNQXXJac0ge0K ewdiETxnwQUFfcqo5cpcwE8UhKrg+T/CcEFCyCuC8Fi5QGYeO65JBVRw6GVESDkA7IctrkEEMF/7 b22WpVq+/wLQXyN2vq4ygvMA+f8NP9GngC+3gYRegWfVlf/1+Nlsu8re966giFYPIgYF99VHaJiR gHq4btb1XMt6DhlN9DkUXzvfyrxojNcna1ppYw9t/JyDjOKUsCwpI75+5Jj+No+NyZnwmkOcLxIH FvMH4oz8LA4KXK18jBVvDn5RL6H2QKIqRkVMMJgLp2HJvCZ21cVLgtQMYDpQTYIDy1ugtZWfD/Yx MthXihzm9rL5SMDvRiD3E8loRUEq1U/Nq0uBbXDFYthxG4qv/VrDe2TNPPtoDtAH/aE5LjQtEREq 3ys8PwvzC4rKIuRxKab6ObmjDeWCqhJcxLnzl+HUJjimk9DeKlsngyTfzF0qCRuzDLF9i7HTeXsA hgfg3EGJravV8FxObrBmscTKedAOIwOwdR+wGq4dkteiNfDydpj5IZhcMRbq9FZ8xSONYHeUt1td 0TEmWGNlvM8jRX7b2+HqBaIFW8i8jCB1XFz46AuPUJ2XiJH+0SSJaAL9muaHKD4Tc7CA6lQKJsJw RYyRk1uw0Ezjq+ZUX0QQPzQxBmwxyschYDkLOMyfe049PeK7AOMgeguk9YD/gYeBWw029MvPc9WN a0mPpmisi9G2bSt9727hXTMSKAVTN4GHfKyBgYEkj7e1ssS8etn6FjRzCAOjD8JTcaRU8HlYPASH d8HU1Rc4/vJWY7bZD9wHLb/EIv8eOSqqEQtGBigagvNqd2kN+/f7uTkFBUNweFCTTmoCPRa5XkMy 1fI/pqDGUUzNwYo+CHUiqt6gFr2kqCR7K4dwwjuFafP3luRXForwtOF2CjGj3BCGd68QwaWo4bfG rqe1QaApe140l8cEbzYTfwt+5v0TMON3DkvieaaMWT4LfvS/YYv2hXAL4XbGAT/GtAJwoF2k5hz8 fM1HaB0P6VchkUsAGutKxeeAoA5gWzbnwqC7oPpkiklT1nMtGziNzXIWYSMmFw9GZBsdBopBOF4b 7aRpL6WilFtEFJKaQS+kzwDUUUqN/KgZ+7bn4dqNWPkA1hCMDqZYvH4jN8cTqBRM1cAzcoR69vdx dXE+3LKcEJII+eaWVn6FOQw+BTf3Aw2ieGRD0HgIrAeKzFiz3u+hdTckEtis3ry5NIFVwKlDsHAh nOvxj0ZsIcALW6A2DpaJsVaKHlsxPgA1lVEiiTqGe7tkXTQ0HJjE9suiLExHaYjEGT3XRWFU447A ZHsiQ7sqRfMsuJJeuNiFASWQUh1JYK/IdxMUVCtYvAKmNkr2/2/Nvn5zgBJI9uXTIZ8T3+wb22Xl 6hZCOChn1EozThf4H5jJNJbSz7jMDiaxnamR14hOaKM7tBPe3gUnngVOQPUVPkKNDZw0ct1DiHxY AZzpgYmNYupUcGb8Etpe20NDb5LqhiiBlEI5GqUUxUyRaLSSb2czrArAyGCOzLRKBlM/Z7p6LzF8 zEgNnOQCK1hAF71oWVt6gDfoJkkPERpL8bReuwp49RjiHrcioiVYGQhHoSYOdojTDyoWrokQrg7x +p+2UJ+JM3tKFG1+/CeXwUok8DSIws1k6O/qLCWGd52EpZc0EgSyK2DZQfh9DOxuqGrt5K0rXkKN ryV7uYbmqXDNTKgFqe5hTi3SwFXNsr0WN0uUb1HJZR2R+Kx9uyHVJzP770CFJmtrtAXx6nqWXNoi BvCzsJOHWffbJFEN24dkPRqxmIxi3psWYPPOX9hc8W8BSCvo0mJhpw+JgT8gFDLqUEIarQrAf5tM FW8HnTQ7GSM7/hE4ZY7pN7Rf0KfLjPU3ECbNbM5QybeppEAdBSZlciw7O8Sml3IsZCLwGLywG77b DOd/BMH/AvUzGHefX+3gMXyu57EFg1ABH+O37ObQ3iKdwT6YoNBo7FyAHwxIMNrXnBgDwB9PP091 cAVu4yOcMbdbzjSKwBqaS9W2LjehUguAl9gHaI5xiCR+Grzfpkn/vIo7Og7EZR5fkdJcxR8XKWYD KERb1SBIcShYr/hx2bBq6xIsaFlOBYo9Sub35+aXFHDuNljtgtsA6a8NMX71agYOzIdwt+wUBdy2 B/vW1zdv7nsNhicjMpeHwREBahql/KIL6G5KUO9d5yBYC5dkqShWEhhRRCIQLkI+naWrr4t8DcSG xpNYPIlwNsokJ0NPf6chE0V940QWj0Yp/I1CNcK0szanLFecdm+nEYFpvHSmF1i7FKY0yoQttmGH Mp85IP0eBnKnYeJlMFPBiVMyG6GDUDkfbBNwVAUkYNW5EeqwqOAqwMVCEUQTwqUKh+koGmkmyRky JODkEAxHwRoPThxG/lXAeO6dL/PlmVGi+HhugXaYsoZTUx/h8MT5TDoxQDQSJWApVmRddqL5xzC8 VtxODki6nRSzcaa4VzEM/BOfKdFzPzCDBuLACXoB+BIb+B3dVAD99HCSHmoN11PAVXyGq4FX2/Er WWkgkoC6ZlgVZfqVWUb6+5m2eB7n23YQS8eJTq9kVaXi1csVX56jxkgUFRVRahJ1BLrGcRb42MxG HCVLMAicXwbZVaC392KPm81w8pdyXt8ZgWYNTMR+D5s3NwNXHYZZbRDeCZ3VyOImgOM9sGgBdLaX yTEWdJ+HrnM4dXXkK6JUVytijqI+EGVcsY7hzi6mhGCOPYnxFVEi6TT5wa5S1cDZlRNpGI2SSEED ij6gdo/ifE0f5PYKBES9gkkarlwGjQkxGPdbYgtYFYTtg2B3mn4p8VjMngVHX/YL9toKKhZBKCih DpOBs5oJqR5cXqGIg4McH57pO4A22MBZLtBDNQ754TTOsUForIRwCJKdsGk21B6CYAfoBWINTSHy XXdPmey3Br3iHRx+vp2FjRa9JKnTVczND5Ar5phXMZ8ZgUs46pyg3+2kqE4xBSE8L2c9jOgqDmI6 mWOIq4IeFM30G+I7QQ/xMsJLIvEV+wKIjdMT/qQuFdMiUUbyCeaMdDF90TwiVoR0aICquijXKLBm g1fMxTPnZHNpejqLTAImzWxkaAiGKiRewGRQUrmqj/yKT5B5z6VwxdtQJgDYa9m8OYBs0ipMJtEJ aDoIsV3QOa8RtwqYFIFznWPdLUpBZyeh6gSxbJRwShEagsZUhtyFTqyC4vxAJ9UVdbinFBc4WzKM JKyJhKZEKFRDsB1CPf3MIEq6O0rvkkkwYxrEp8DsSyAYAXcAMmlI56GQgXwGVk2AtiN+sVaA41Mh dtpwn9WQmA7ZWim44ZXGcBVne4fJ8e9MYYKpreMAPybISrTRoCsIU0kNvZykigxRtjJ8LAdNK6H7 JMyZDUlXZrriDcgfhsh8OF1GcBawZIGcHE4Fe8OTmVPdQ194gLpxCXKFDHo0R97J8QfmM4ETdNPJ HN5LxuwRL1n6PMLQU4huUwHMppHlwBOG6CJAHY1kzTJnkOShiZ3dnN/bKC6FtHmzFsZbcGkeLDvB z3UVzVYXDdkEVpfCmgzWcWiZDV0ovo4giEUqIlTVT6evs4ezJ7uZMreRJ5My1oG0EPQ4+igAaQKI kTcD/e+FyHuxN7B5s20I/6tM42o+Awi7TACLT0NzB0TbE5ztj0Bdp+8f1YClKFw4R180zpntaebH MoRcmD51AafPH8dCMWvyAip6QkzgGibzIJOYSXRKFamRfvJOhpGhNO3cxXQ+zTjuJnk2wFB1nygF +RC89ScYOQ9Pnwf3PEybImq/7ULLXBhugCs6WMgAABXMSURBVAtTKDlpUlNgxSXQOySG51N56DOR smeR47qiwLDzGxy6iVFLEBuX3Whew+ZKFKMo8lSjqKSabnpQXKCK0+QOd1HceBPYObCikLUEyvY1 BZcegr7/BK6ApQvgQg80NwoB/kcjTO/haP9U3rjyFjKxVnKhLFWdMf6XEa7PGcI7wa9JMx9FA1PM nholQyuHOMt56phYIjwLuIlGvkALH+O72OZ1ZYiuhx4sYA2NtB8BnHbxrozC6py4xh/RcGtS81hN gkVD54hEIiyfopgIMBtTulTxCppVJAhWQE19Ixc6u5lwSSN7PU+pC+Q6ifXmSA9DLnoEtu6EWXNh +5Mw40nft6WAr3CakOF4NUiUm1fR6RLgvcyWwtETW3xbblGBtuDUbrg+gTs+gdNQi2MXuXLp9ayc dz3acdnFNmzOMcowoxOHOeEWea67jefO3kUVT7OCtWi+Q5T/IEFAgHKiNZB1YNFqaF4j+6x5tYn1 dMQXmx+BZgtmm8NnrgMrByEzCBED4jipzFYFpqR9JWBzDAgTQaHQfJocn2aYJBaaEIoKLOLUspD5 2CyigsU0kOPaxw/DsREIjUBhWErZ40A4IBxV3ScuhXUmutpCwootRKhubaej4ePsv+wLvBTbwsev jOE5qK8LCwTX20AbHew16zmJCEtYWgqTyOInTYeAA5wGxvptG5AQqyKKAO08DMzLA/vbwYVMRIKw PxWDx2OKTwyJ+3p2MgmtusSwf2/u91UT1uRJWhawZ+shHzokBAtCQarqE6QScfGTb1grwSDrgKHH UN81ISYmqHtMsIb33Jbp5CQiV/RhXJfX9sgIA0EuK4BtaxJpqCiAk0wSG4WpVhzLhaLjgAMjehDt QqVbw67zHwRgxby1BI/YKLP0Ty/M8fbBv6UEur0sBHv2wnIbBm245R3gjPhHmAvsSQlW3sgAzKiW NMY9R/1jd+KHoKtSSkvms3DqAMIHvg80cRcJBkzBsjAjKKCaMEFsLJQJuhxgG0cIAKtYSYoirzY0 0r1+MtSYEBWnQvzKiXrBXFCA8pBNESFrr8kx6QdWLWDKfx+iMq94V/OrOLuGyDswviLGK+ktzODr ALyHJmoRJu0Af2IPS1nGeAz4OT5GkWcHTyF6YT+wi45SLaTxC5t4erSdNzTctGgBNfUwIQLDeXN4 AEodww5CbSKBWqdQV5hpNgmVnkFAIUf+APBEQdDjsvnzHAhYUMxDxV4TVKskkhywPCi1qLm8UxN8 0c1btxmIR0g+vx9eaoDTDZB3eQMNxSKDwSJ9YQc7kaD4VpyBGAw5SfJOisqqALHqenQW1PlfsoK1 LGedeLiaFKEFCrcZOg+W96IK3thjOlIU00im6G+1c0BdDK6dCmdeg5p6GE3B6QPiTPTuM6QFqsIF TnmCqYesFuAhIMFkyjHghvlXHHTJ/6nR2DisZAlZMkR5mA09XWx4/Aj0psU4yYi5jNYNwH+D+m8f JNFDjqoD2g5x9rpmijY8c/gqMgv+mdpojC9lUvyR9SXckTY6GDRfGQJWs4y97OECPpyYh013I74n wwsuwTwOAksOwrjjwAl4dn87hV4YHIHVNiz1FtuGW3NQdIoMJZOonWBRh0KAVlMp+H4KXt96iBBS SGV9GnaljlMRNCYQu2SEkf91Yvix0vgRDRl8NB4FnEPTByUbUNJ0Ok07M7FZBWJOO5mAwTijSuME bPiDYus2h2dQnN1dpO9kgp2TEuwKQyGrGZesp4KPkONeQmjC2CjXIad0We6RA9O7gEEYuRzmXyME V1OAlPFU/ACpW/vKViG0L75f6oy12nDes9OXEZ5HEyWh9AOAzWIieAVb6qnDKiO9EX6KooANNBJn OYt4ld28yqMoYIRHaGSYTf/VDgd6pY97W6HvNPx0uIzwDPHxM3/DvCpdqYzAsWsX4CrYebqdZ4NX gv5n4B+4zmSYeUdtMOonbx9gf8mT522jYUN47wC+yDTCCKO4miaWIzEOS4EdLGAce+EkPLWvnbkD YpCo0OAMwx3ubHh4Nu9MDlK5K8Zgss7fjspLbpjGjpZm7gdqYxIxf3Oijl3BAAuZYJyz7y4jPOBJ jfpWWUx3H/7R6gK7aB9zzHqPguaXF7KAnZiAxRnAVKguvsXkWIKjhaLo0GttpuYdCo6NKmqiNRa1 WzWTwRxaksCdmj5IXXWclIJDh95PkiQ+XoUrMz29HpoU5KJw+lU50rwjdmmL+GOLwL1HEUdyOazm nUC1+FS7RxDoBIAHYPpiNvTV8ceRPB+liE0Gh9Nofo7Nh7GxqCaMjYWFop9BtrCfK+lggL+ljhps II/mucogA38zX5SguoRvLFbVPtTRcB/saQX3M7InHM3Ey5rpGgV2t7NQw8Ei0LcAFPyXhhfpYAZw XbiJdE48EhXIMbuEpcRReJYuj8sZNGW8zIa9JkttCbCBJqbRzseFdpizdAGficFPBoR43AJ8JAb/ aUk45C67gwUtTdTcKOjEGkkn/jIiBB1PeQD2T3LW1SxddQ17U5Oh8RmRvy0bflWEra9gb2LzZu+Q eYsOeuhmgB5S9DDK2IgG73/OzONcGmk1k+0MKjh9kPyERvrS/QQilbgzLCpd6NOKkWqX4ZcdMjOh OMuFEybcbvFS7PFLyL/xJvQohro3MTwjw8igN31ZoBJCOcilYXqVAGFfeikMnvZRBCdNgipjC3rv OHg2gHigvcNnrhDdqDeC8+b+l0PiLCe6pfb8PmApOeqpI81sLFwUijASwh1CUUuEEDXsQTOHKSiK OCYq4JJCgYaD/bydOgzj4xCpNDJLHrJ5qAhJTNvZTgn71ztBX4E1sZHmOKwON7Ktr4cVCqaP9HA7 jTRWwEyngQF6mFlsIB+BqCNr9iZdnKeLWiZioyTT3syaZxmrR6SQc/SgzMgraOBvaeSlih7OVMOR rh7O1jbyggW9rYewZzWyfBimhAXg8JJwA/u6Oqhd01BywV9t7h8ABisglICurg5CGsbPuARduZZh qygOBdeFNwJw4m3sj7F5s2dHnUQDM2hkJo000MilNDKHRsbTyHTz2nm6CQIraSZtlvREyeI4Hjqj MKeAG3EhP0AhHJRZ+KMsvnNSMzzJpWuGJjvRIWDb6IIm2r2YMIsIU0nfYJChBVkxZnZHgZcgdwFG LkD7RLBGZVqXNMO82TB7jtQmRYsxeBhYZ8HrJwR5sMS/K4XwyOFXOdYwcMK83g/k2YtFM5paqsmQ wkYRBGwexmYFFi6NVDCNOjRVDJAyPPBxLOYRIkvX0Jtkz/TBhHEQrQDXkjD+wUGorIbG8eLZAdA7 yV2YQVfleJaMg3kNjbzQ1cPkCHSP9pJyephBA0tN7mm3A9GIeCnnNkzkzZEuxjORkDkAve3qYRmB mCc1DXTSgwbepoc5NNDt9DISBLcLbn6jkSuvgOrqRjp2HuSSueM5PQKTI8K4797UwNz/1UFmTUMp z8czGj8EnKqAdCJCdVcX42aMklaaQfJCdEpJyly2BssrX7EIuIfNLDLPpwHTEQVsttktDzONdTSz nmZyZictBq4tWV4M5P+fcib3UovwP1peIrAoCdm5POdUkdfsIqcPunRR4AKNdOJwlgKkB2Fk0BDI NWZfrZR7HM/BYBbeugB9A5KC1J+EznMiU4WRnIx73gOT1yAALSsNYXUh59zVMONqc++Y2f9fQjK+ h/lXhjnDEJooKYYY4hG6gUEepJ8BU3YdphNkOROo4ldmoZ8ggGYD89mUquWKF/uIPDQIfd3wxOvC 9bJGcHJHfG3NvQ+efIhfKhhXC3cuXMDOELw4TkzV76GDZchpHQNoMGs5AEFCzGcP1zFSysvxtlnK 3H6BITyzzSgaolxLE+N7JaLEuh3UL+QkXHHtQr63+yDRMOzJwvs1sE0g9Nr/pYOhMuIuiV5heabQ RCxFVCnZGWgEpv2dsL4f9TpaK/ykofLmOZ696hGDiCyhEMu3VxGpFvgdBznDQnIMI/6maZB4We7q aDP65fKFNTWSDVYwxKUVtJtfX1IL+7KwSMv7hx0EJMUVApniyq4ZZwlYzqI6H9EJYJ3JMRwPXOiH HVqMysxDDvTXkUpAJoKgEeiuwS+aEMbTOC6haNIGc2Top5IOLOaSMDzF4ytXspJhUqR5nHO8myIu DgobmyRDNDKOHmK8zgwyn6iWaj/KhliccIWDTTXpV7ZCUbNsQQvLo3dRawtM7+Cb7fzqPHynW/FF JM5gJU04U6REU/GCQJPVso+FLAIsfm/WJ4if1VKLyOxtdHCsbK3X08QLdNCJZhTNCpoJfFiWxAnD j7Yc4N61i1gQEFNHdQwe1B2or0BTsImomcmjwFMMcAsaF0Vy4BVOF3OcjtcAWbA8i6IqSUSlfEdV dk0z71XhQwjvp506fE+Kl7TYgGVsfVEksOYMJFf7xpwagASsTQABOLoNdlkQiUmmF465crCwALUB OFwNjIMrb0CqoGixXBa1CBqv5OHYEKy4VsCowWSN9UNnEcYn4GkF71gFJSfRSlCenpcXsY+UEDTe 9pMZOEGAXqCfABHqUCwEFDmKxqaosCiykx00GGViEh5HcXDIkCCMQwaLt1jA5xh3bAB27YS9r4OT o8KyCVgZJl61lunXrKOuqoau1EMUtAkRVPDl8fDFyZrvmJ7pCGw72wGnxSmiwrCQJexjLy4uRURJ z+IXaEwhuthymvCQJjyOt5YmyQ5AoW6XmIuAlvJrX7h+EW4O3hcVClbAcjR8Q9NRkOcpBO2AwX6v jC3VdXHGxRNUKsu30wHoIpbPx3ziC5Z1atpFBLjWhNZYZZ8pmiW9gUPSM3YDvwK+C6mlULcB5m+E yzUMulL1uW8DEIbd2wUYcWkQlgUgHoEJlYK0+cEQfDgIk2LwrgYh2oqwILQcMrLaczk5ZnsH4Lp1 Jmw6LnVgL2j5TgS4phqmh2W7aG//m3iuSqD2bnyAZC9UWAjPBoYIMkwtCos0kKeIF8enUAQIMpmP ECBNNUVCPEuQPyDafp56wlzCu/j/+rr3GLmqOg7gn3tndvbRfY+Ugn2AFKyB2bZAeRQKpZQuSPBR +QMIQSMJicZX4h+CpoYEYuwfGhQIUamAQiwxmhAqaekWoUpIgT7YbaQEsJJSitDuzr7a7s7j+Me5 s1uMcZKbmdzcc++ce87v/M7v8f3+1m5/3ZfeKzrv3MupBqMTNU3lqmLuhN5cTr0pb3GxqDfZrLWL 9UtKpGzIcc+CoIxaIU6UmrgLPZZZdi0zO7iMIjA7GjDYhioMosvyUcF2+7M81cRpeP2FIfV6vHbj Q2LlnZRnxunsZHyClfWSIDqhj2f3rbahq9Noedh0+SUdgu76dRZWK4RytGBDjSQvbRG0Gs/+3uwn et3vnTERGkknRXGa7jFkk8e9blAZ65Ss15cpqfOZ8X8/wsFDsVE5a/xKA9wA/Wwvx7V7XpG2PFvz PB14KvBYPRoHrU3cPofzi5RPzbk4xh+mOVLhnyO8Pxo9311dUQ3/PET32GIxJrT4zKw3DSqLalaJ 0SnDUhFn4nNIfSQvydTluG6pnElDKlhj0BpXqpvSrMVCi/R41mfE0OFiW9QybOuUSdOmHPe4s5+7 23lPfNu5vzmhEKoqY4nJ8qgj9ZqO0aN+GPjWrzdr7WTZspJyL9+Zy4lFwZrR/dag3jzrhTEv/v97 7DesJuArFs2kSTZWvF6R6uIHuMgemwTb7LfOBdrRPBG8+uKg+x9jw9fZ+AihmZDBDLu66c/HN+O+ e/20Eu85YLMfJ4mpgBCMjazWk39JZ+6mqHnShqDXJPuMhcbSFyHVjWjrLOCJWTaCcZEEb7f9KoIq +pScJW6PdmUScMivTmk9RMcdWRbB/Hj6rcZTQoydvLGNZddRH2ZXtxm9fHOOpkyCCyIrU2snmydF Od/JhVcwdoJVZ9KWiyiyTvT0Us18Ze+KtsK7WUcPfkilVcRaBtHQ2C3CwhqitgU3SqS+bKXTVbQJ gmndJtT9ArcpaJLLBro3m8xjHppJJed6VYm6yGRSdkKwUyrjkbxho+bDr5BLpVMk2p1zwQrzO4u6 c7dqaWVilL2DMXyWHuaBSoljcbd7FRTZ0czAB0OWK82kRTZEuyNeopC9tVftd7fgzkzQ1inZZiiq yoXBZVf3ue/3/OhrEbW/fDymJBbmkrbQX8e13LQdG3i2adT3HRWwb2RIV0+3Ftc4HJ62c/hDetvj apfLSfb5c5Ahlf7fxGsYFf8SHZWpRkZRUFKyyGwY5gD+KIhR8Aap3lC809zb6Z4fVd4bIVsQQ/zd WHmuzbHjFMfu6qbICt1ajxIzNsz8Dh6aYsVHHC7H1fBQN1r5RksE86QJ+WziNXCvN4iif3iao+PU C4ztFNEHPeQfptogf4hpEwsUzTFtzFa9apKshHVQ05zByhZIFewV9FljlUmpYQ8adb26gCZ1W1Ss U5MKgsQ2V/mik1J7msZ8cG67eiEnN9VuydJLnNHZq0uiveUWt+aoltk3NETg4v6SJb/kQLto+7wX eakGDAmC5fpmUJR1UXPNy3o0KqY71fFO1pMgbp2eN+TI3CCdw6VX9qkkJHOiil06zvoOBuZRP8ne z0eNmV/FiIM6dfrr9IDL86fbJ3h5YLvL1l3vxWP7jKlRbEcijZ7/7dkRMnD/J1Vt8EmpOdXKjTVJ 4+cnokk9Fwskoq3VaNUXW370JB8fivjY5czW2moY+dmEuy4Xwc79eV4M/GmaJyvRPXJOMTpZL32Z Y2/GFe1Qu0gv8G8Onox0mfUQRbzT7Ca0Pc5L8wucWYxlC3pWm8kcqH43E6d9GKTQ7ZARHzvuAzd4 R0FFPtty5JzULqfVYXudhasNSqR6NOn1PZ265bQItmSlU5/XbK+CPfqsVFN1xFETlR16//GM1smK rxa4s4lbWxI3F4Jb6ptj0Y/HWN4Xs1Z27xpy4JvMBG5OGZdEImmmo232XKvZXUQXLnKBd7KVtzG+ t2Xfhck4LK/+fTDGbSdiofL1v4ukDGsnaVrCirf5bBkv0+NsOZ+yttAvTROT2wdcuuISOYmClNd2 s/Uutu2Q7vJuFnIKZvNU+W8DI+CO/0Go07B0I1w0mhsPa8QHO8RCZ3XRU5QdI0OMvB8nnhBxdTOq eARNDL4Q1eR7DZpY8T5PVqL1emCYpWtjNvHUoGirXRGfufV5BieiF7xRBtMi7hIpJ9pEyZiPM1r4 3JzsxHFxHdib9XjVDAHPMRvwgJPyDpjjqOaZqhdT8o6Lj3kTwx5UldOrzWnOVvSMvKjAr8Y1rnC5 i1V1KQs6tPuZG23Eprd7XVVapb2jS75WV8FEPURQrUVyv+XCvlJ8Ta24M3Z9CdKFrFESBHumBpWn +XRqpp7EOos0Yu1vnTLSQWQFWeZxTyhpm0ysXNln5ao+r/3tDbmU+zPc7Bce5S+jXJPlXPSMsLzG hS+RZCkJrZZKVsfrp0aOOUtK/1MRyL52s/8AunJ/buE5OkwAAAAASUVORK5CYII= "
         id="image1107"
         x="-4.9788505e-06"
         y="892.36218"
         clip-path="url(#clipPath1123)"
         transform="translate(238.09909,20.090207)" /><g
         aria-label="LD"
         transform="matrix(0.71688477,-0.38760279,0.56651693,1.0335352,190.1326,-0.27573944)"
         id="g1113"
         style="font-weight:bold;font-size:158.668px;line-height:1.25;font-family:Aclonica;-inkscape-font-specification:'Aclonica Bold';fill:#ffffff;fill-opacity:1;stroke-width:3.96669"
         clip-path="url(#clipPath1119)"><path
           d="m -463.73775,841.98145 h -80.10874 V 730.41801 h 30.75742 v 97.38558 h 49.35132 z"
           id="path1109"
           style="fill:#ffffff;fill-opacity:1" /><path
           d="m -341.09544,786.04478 q 0,8.13483 -2.16929,15.49492 -2.16929,7.28261 -6.12049,13.48058 -3.87374,6.19797 -9.29696,11.23382 -5.42322,4.95837 -12.00856,8.44473 -6.50787,3.48636 -14.02291,5.42322 -7.43756,1.8594 -15.33997,1.8594 H -449.25 V 730.41801 h 49.19638 q 7.90241,0 15.33997,1.85939 7.43757,1.85939 13.94543,5.34575 6.58535,3.40888 12.00857,8.36725 5.50069,4.95838 9.37443,11.15635 3.9512,6.12049 6.12049,13.48058 2.16929,7.28261 2.16929,15.41745 z m -31.22227,0 q 0,-9.06453 -2.24676,-17.19937 -2.16929,-8.2123 -6.81777,-14.41027 -4.64847,-6.19797 -11.85361,-9.83928 -7.12767,-3.6413 -17.12189,-3.6413 h -8.13484 V 831.135 h 8.13484 q 9.83927,0 16.96694,-3.64131 7.20514,-3.71878 11.85361,-9.91675 4.72595,-6.27544 6.97272,-14.41027 2.24676,-8.13484 2.24676,-17.12189 z"
           id="path1111"
           style="fill:#ffffff;fill-opacity:1" /></g></g></g></svg>
